// Created by Crowbar 0.71
version 1
nodes
  0 "Bone01" -1
  1 "Bone02" 0
  2 "Bone03" 1
  3 "Bone04" 2
  4 "Bone05" 3
  5 "Bone06" 4
  6 "Bone26" 4
  7 "Bone27" 6
  8 "Bone29" 4
  9 "Bone30" 8
  10 "Bone32" 4
  11 "Bone33" 10
  12 "Bone19" 1
  13 "Bone20" 12
  14 "Bone21" 13
  15 "Bone22" 14
  16 "Bone23" 15
  17 "Bone24" 16
  18 "ValveBiped.Bip01_Spine4" -1
  19 "ValveBiped.Bip01_R_Clavicle" 18
  20 "ValveBiped.Bip01_R_UpperArm" 19
  21 "ValveBiped.Bip01_R_Forearm" 2
  22 "ValveBiped.Bip01_R_Hand" 3
  23 "ValveBiped.Bip01_R_Finger0" 4
  24 "ValveBiped.Bip01_R_Finger01" 4
  25 "ValveBiped.Bip01_R_Finger02" 5
  26 "ValveBiped.Bip01_R_Finger1" 22
  27 "ValveBiped.Bip01_R_Finger11" 26
  28 "ValveBiped.Bip01_R_Finger12" 27
  29 "ValveBiped.Bip01_R_Finger2" 22
  30 "ValveBiped.Bip01_R_Finger21" 29
  31 "ValveBiped.Bip01_R_Finger22" 30
  32 "ValveBiped.Bip01_R_Finger3" 22
  33 "ValveBiped.Bip01_R_Finger31" 32
  34 "ValveBiped.Bip01_R_Finger32" 33
  35 "ValveBiped.Bip01_R_Finger4" 22
  36 "ValveBiped.Bip01_R_Finger41" 35
  37 "ValveBiped.Bip01_R_Finger42" 36
  38 "ValveBiped.Bip01_L_Clavicle" 18
  39 "ValveBiped.Bip01_L_UpperArm" 38
  40 "ValveBiped.Bip01_L_Forearm" 13
  41 "ValveBiped.Bip01_L_Hand" 14
  42 "ValveBiped.Bip01_L_Finger0" 15
  43 "ValveBiped.Bip01_L_Finger01" 16
  44 "ValveBiped.Bip01_L_Finger02" 17
  45 "ValveBiped.Bip01_L_Finger1" 41
  46 "ValveBiped.Bip01_L_Finger11" 45
  47 "ValveBiped.Bip01_L_Finger12" 46
  48 "ValveBiped.Bip01_L_Finger2" 41
  49 "ValveBiped.Bip01_L_Finger21" 48
  50 "ValveBiped.Bip01_L_Finger22" 49
  51 "ValveBiped.Bip01_L_Finger3" 41
  52 "ValveBiped.Bip01_L_Finger31" 51
  53 "ValveBiped.Bip01_L_Finger32" 52
  54 "ValveBiped.Bip01_L_Finger4" 41
  55 "ValveBiped.Bip01_L_Finger41" 54
  56 "ValveBiped.Bip01_L_Finger42" 55
  57 "Bone12" 4
end
skeleton
  time 0
    0 -1.996623 13.230874 -11.535234 1.570796 0.000000 1.570704
    1 0.000000 0.000000 0.000000 0.000000 0.000000 0.000000
    2 -8.878141 -0.048395 -1.142586 0.000000 0.000000 0.000000
    3 -11.856707 1.258262 0.000000 0.000000 0.000000 0.000000
    4 -1.905335 1.742210 1.054457 0.000000 0.000000 0.000000
    5 -0.970945 0.822710 0.686170 0.000000 0.000000 0.000000
    6 -1.841841 -0.252357 -0.413176 0.000000 1.570796 0.000000
    7 0.000000 0.000000 0.000000 0.000000 0.000000 0.000000
    8 -1.655434 -1.018065 -0.614096 0.000000 1.570796 0.000000
    9 0.000000 0.000000 0.000000 0.000000 0.000000 0.000000
    10 -1.431746 -1.846478 -1.038433 0.000000 1.570796 0.000000
    11 0.000000 0.000000 0.000000 0.000000 0.000000 0.000000
    12 -13.236908 -3.969946 9.111436 0.000000 0.000000 0.000000
    13 0.000000 0.000000 -0.000001 0.000000 0.000000 0.000000
    14 -13.544948 3.169006 -6.601964 0.000000 0.000000 0.000000
    15 -3.124472 1.877203 -0.786219 0.000000 0.000000 0.000000
    16 -1.143314 1.676258 -0.050264 0.000000 0.000000 0.000000
    17 -0.625989 1.347690 -0.418034 0.000000 0.000000 0.000000
    18 18.704233 -0.000006 5.198635 -1.570799 -1.391899 -3.141592
    19 2.033364 1.000774 -1.937603 -1.668502 1.286510 2.942925
    20 11.999999 -6.000000 -17.000002 1.251808 0.386067 -1.905058
    21 0.000000 0.200000 0.500000 1.396263 0.087267 3.071779
    22 0.500000 1.000000 -0.500000 -1.570796 0.087267 3.141593
    23 2.000000 1.000000 0.000000 -1.570796 -0.174533 -2.967060
    24 0.000000 1.000000 0.000000 -0.523599 -0.523599 2.967060
    25 0.100000 0.400000 0.000000 -0.785398 -0.174533 -2.617994
    26 3.859824 -0.148947 -1.331303 -0.551135 -0.052360 -0.523599
    27 1.719423 0.000001 0.000008 0.000000 0.174533 -1.047198
    28 1.099655 -0.000001 0.000001 -0.211542 0.321749 -0.674088
    29 3.883657 -0.050343 -0.431064 0.174533 -0.174533 -1.047198
    30 1.719567 -0.000001 -0.000003 0.093309 -0.209081 -1.047198
    31 1.209173 -0.000001 0.000006 -0.174533 0.000000 -1.308997
    32 3.942300 0.050313 0.431023 0.305925 -0.165323 -1.483530
    33 1.539090 0.000021 0.000008 0.052360 -0.017453 -0.488692
    34 1.196317 -0.000016 -0.000008 0.000000 -0.028828 -1.745329
    35 3.859685 -0.132581 1.193087 0.688557 -0.175547 -1.745329
    36 1.312558 -0.000014 -0.000005 0.022217 -0.060427 -0.506349
    37 0.729370 0.000003 0.000003 0.000000 -0.000001 -0.872665
    38 2.033350 1.000771 1.937653 1.596645 -1.286513 2.942953
    39 -0.000001 -10.000000 6.999999 0.785398 -0.349066 -1.570796
    40 -5.000000 4.000000 -2.500001 3.141593 0.471239 3.141593
    41 -2.000000 1.000000 -1.500000 -0.174533 0.698132 2.879793
    42 -1.000000 0.000000 0.000000 -1.570796 0.000000 1.570796
    43 0.000000 0.000000 0.300000 -1.570796 0.174533 2.094395
    44 0.000001 0.000000 0.300000 -1.570796 0.174533 2.443461
    45 3.859851 -0.137960 1.332479 0.181664 -0.031383 -0.112198
    46 1.719425 0.000009 -0.000001 -0.000001 0.004082 -0.363003
    47 1.099660 0.000001 0.000008 0.000004 0.002604 -0.244324
    48 3.883677 -0.046777 0.431460 -0.337126 0.081783 -0.504719
    49 1.719571 0.000013 -0.000012 -0.000001 0.005522 -0.366469
    50 1.209180 -0.000007 0.000000 -0.000001 0.003080 -0.216402
    51 3.942316 0.046764 -0.431422 -0.328104 0.023120 -0.883785
    52 1.539088 -0.000007 0.000004 -0.000001 0.000001 -0.247796
    53 1.196322 -0.000008 0.000005 -0.000001 0.000002 -0.430798
    54 3.859692 -0.142411 -1.191952 -0.637508 0.168950 -1.019603
    55 1.312564 -0.000022 0.000010 0.000007 -0.000009 -0.439732
    56 0.729364 0.000001 -0.000001 0.000002 -0.000005 -0.244305
    57 -5.224821 0.939095 0.088129 0.000000 0.000000 0.000000
  time 1
    0 -2.547421 15.906736 -12.019624 1.570796 0.000000 1.570704
    1 0.000000 0.000000 0.000000 0.000000 0.000000 0.000000
    2 -8.878141 -0.048395 -1.142586 0.000000 0.000000 0.000000
    3 -11.856707 1.258262 0.000000 0.000000 0.000000 -0.113374
    4 -1.905335 1.742210 1.054457 0.000000 0.000000 0.000000
    5 -0.970945 0.822710 0.686170 0.000000 0.000000 0.000000
    6 -1.841841 -0.252357 -0.413176 0.000000 1.570796 0.000000
    7 0.000000 0.000000 0.000000 0.000000 0.000000 0.000000
    8 -1.655434 -1.018065 -0.614096 0.000000 1.570796 0.000000
    9 0.000000 0.000000 0.000000 0.000000 0.000000 0.000000
    10 -1.431746 -1.846478 -1.038433 0.000000 1.570796 0.000000
    11 0.000000 0.000000 0.000000 0.000000 0.000000 0.000000
    12 -13.236908 -3.969946 9.111436 0.000000 0.000000 0.000000
    13 0.000000 0.000000 -0.000001 0.000000 0.000000 0.000000
    14 -13.544948 3.169006 -6.601964 0.000000 0.000000 -0.104645
    15 -3.124472 1.877203 -0.786219 0.000000 0.000000 0.000000
    16 -1.143314 1.676258 -0.050264 0.000000 0.000000 0.000000
    17 -0.625989 1.347690 -0.418034 0.000000 0.000000 0.000000
    18 18.704233 -0.000006 5.198635 -1.570799 -1.391899 -3.141592
    19 2.033364 1.000774 -1.937603 -1.668502 1.286510 2.942925
    20 11.999999 -6.000000 -17.000002 1.251808 0.386067 -1.905058
    21 0.000000 0.200000 0.500000 1.396263 0.087267 3.071779
    22 0.500000 1.000000 -0.500000 -1.570796 0.087267 3.141593
    23 2.000000 1.000000 0.000000 -1.570796 -0.174533 -2.967060
    24 0.000000 1.000000 0.000000 -0.523599 -0.523599 2.967060
    25 0.100000 0.400000 0.000000 -0.785398 -0.174533 -2.617994
    26 3.859824 -0.148947 -1.331303 -0.551135 -0.052360 -0.523599
    27 1.719423 0.000001 0.000008 0.000000 0.174533 -1.047198
    28 1.099655 -0.000001 0.000001 -0.211542 0.321749 -0.674088
    29 3.883657 -0.050343 -0.431064 0.174533 -0.174533 -1.047198
    30 1.719567 -0.000001 -0.000003 0.093309 -0.209081 -1.047198
    31 1.209173 -0.000001 0.000006 -0.174533 0.000000 -1.308997
    32 3.942300 0.050313 0.431023 0.305925 -0.165323 -1.483530
    33 1.539090 0.000021 0.000008 0.052360 -0.017453 -0.488692
    34 1.196317 -0.000016 -0.000008 0.000000 -0.028828 -1.745329
    35 3.859685 -0.132581 1.193087 0.688557 -0.175547 -1.745329
    36 1.312558 -0.000014 -0.000005 0.022217 -0.060427 -0.506349
    37 0.729370 0.000003 0.000003 0.000000 -0.000001 -0.872665
    38 2.033350 1.000771 1.937653 1.596645 -1.286513 2.942953
    39 -0.000001 -10.000000 6.999999 0.785398 -0.349066 -1.570796
    40 -5.000000 4.000000 -2.500001 3.141593 0.471239 3.141593
    41 -2.000000 1.000000 -1.500000 -0.174533 0.698132 2.879793
    42 -1.000000 0.000000 0.000000 -1.570796 0.000000 1.570796
    43 0.000000 0.000000 0.300000 -1.570796 0.174533 2.094395
    44 0.000001 0.000000 0.300000 -1.570796 0.174533 2.443461
    45 3.859851 -0.137960 1.332479 0.181664 -0.031383 -0.112198
    46 1.719425 0.000009 -0.000001 -0.000001 0.004082 -0.363003
    47 1.099660 0.000001 0.000008 0.000004 0.002604 -0.244324
    48 3.883677 -0.046777 0.431460 -0.337126 0.081783 -0.504719
    49 1.719571 0.000013 -0.000012 -0.000001 0.005522 -0.366469
    50 1.209180 -0.000007 0.000000 -0.000001 0.003080 -0.216402
    51 3.942316 0.046764 -0.431422 -0.328104 0.023120 -0.883785
    52 1.539088 -0.000007 0.000004 -0.000001 0.000001 -0.247796
    53 1.196322 -0.000008 0.000005 -0.000001 0.000002 -0.430798
    54 3.859692 -0.142411 -1.191952 -0.637508 0.168950 -1.019603
    55 1.312564 -0.000022 0.000010 0.000007 -0.000009 -0.439732
    56 0.729364 0.000001 -0.000001 0.000002 -0.000005 -0.244305
    57 -5.224821 0.939095 0.088129 0.000000 0.000000 0.000000
  time 2
    0 -2.875556 17.512254 -12.304789 1.570796 0.000000 1.570704
    1 0.000000 0.000000 0.000000 0.000000 0.000000 0.000000
    2 -8.878141 -0.048395 -1.142586 0.000000 0.000000 0.000000
    3 -11.856707 1.258262 0.000000 0.006064 -0.034348 -0.175107
    4 -1.905335 1.742210 1.054457 0.000000 0.000000 0.000000
    5 -0.970945 0.822710 0.686170 0.000000 0.000000 0.000000
    6 -1.841841 -0.252357 -0.413176 0.000000 1.570796 0.000000
    7 0.000000 0.000000 0.000000 0.000000 0.000000 0.000000
    8 -1.655434 -1.018065 -0.614096 0.000000 1.570796 0.000000
    9 0.000000 0.000000 0.000000 0.000000 0.000000 0.000000
    10 -1.431746 -1.846478 -1.038433 0.000000 1.570796 0.000000
    11 0.000000 0.000000 0.000000 0.000000 0.000000 0.000000
    12 -13.236908 -3.969946 9.111436 0.000000 0.000000 0.000000
    13 0.000000 0.000000 -0.000001 0.000000 0.000000 0.000000
    14 -13.544948 3.169006 -6.601964 0.000000 0.000000 -0.028418
    15 -3.124472 1.877203 -0.786219 0.000000 0.000000 0.000000
    16 -1.143314 1.676258 -0.050264 0.000000 0.000000 0.000000
    17 -0.625989 1.347690 -0.418034 0.000000 0.000000 0.000000
    18 18.704233 -0.000006 5.198635 -1.570799 -1.391899 -3.141592
    19 2.033364 1.000774 -1.937603 -1.668502 1.286510 2.942925
    20 11.999999 -6.000000 -17.000002 1.251808 0.386067 -1.905058
    21 0.000000 0.200000 0.500000 1.396263 0.087267 3.071779
    22 0.500000 1.000000 -0.500000 -1.570796 0.087267 3.141593
    23 2.000000 1.000000 0.000000 -1.570796 -0.174533 -2.967060
    24 0.000000 1.000000 0.000000 -0.523599 -0.523599 2.967060
    25 0.100000 0.400000 0.000000 -0.785398 -0.174533 -2.617994
    26 3.859824 -0.148947 -1.331303 -0.551135 -0.052360 -0.523599
    27 1.719423 0.000001 0.000008 0.000000 0.174533 -1.047198
    28 1.099655 -0.000001 0.000001 -0.211542 0.321749 -0.674088
    29 3.883657 -0.050343 -0.431064 0.174533 -0.174533 -1.047198
    30 1.719567 -0.000001 -0.000003 0.093309 -0.209081 -1.047198
    31 1.209173 -0.000001 0.000006 -0.174533 0.000000 -1.308997
    32 3.942300 0.050313 0.431023 0.305925 -0.165323 -1.483530
    33 1.539090 0.000021 0.000008 0.052360 -0.017453 -0.488692
    34 1.196317 -0.000016 -0.000008 0.000000 -0.028828 -1.745329
    35 3.859685 -0.132581 1.193087 0.688557 -0.175547 -1.745329
    36 1.312558 -0.000014 -0.000005 0.022217 -0.060427 -0.506349
    37 0.729370 0.000003 0.000003 0.000000 -0.000001 -0.872665
    38 2.033350 1.000771 1.937653 1.596645 -1.286513 2.942953
    39 -0.000001 -10.000000 6.999999 0.785398 -0.349066 -1.570796
    40 -5.000000 4.000000 -2.500001 3.141593 0.471239 3.141593
    41 -2.000000 1.000000 -1.500000 -0.174533 0.698132 2.879793
    42 -1.000000 0.000000 0.000000 -1.570796 0.000000 1.570796
    43 0.000000 0.000000 0.300000 -1.570796 0.174533 2.094395
    44 0.000001 0.000000 0.300000 -1.570796 0.174533 2.443461
    45 3.859851 -0.137960 1.332479 0.181664 -0.031383 -0.112198
    46 1.719425 0.000009 -0.000001 -0.000001 0.004082 -0.363003
    47 1.099660 0.000001 0.000008 0.000004 0.002604 -0.244324
    48 3.883677 -0.046777 0.431460 -0.337126 0.081783 -0.504719
    49 1.719571 0.000013 -0.000012 -0.000001 0.005522 -0.366469
    50 1.209180 -0.000007 0.000000 -0.000001 0.003080 -0.216402
    51 3.942316 0.046764 -0.431422 -0.328104 0.023120 -0.883785
    52 1.539088 -0.000007 0.000004 -0.000001 0.000001 -0.247796
    53 1.196322 -0.000008 0.000005 -0.000001 0.000002 -0.430798
    54 3.859692 -0.142411 -1.191952 -0.637508 0.168950 -1.019603
    55 1.312564 -0.000022 0.000010 0.000007 -0.000009 -0.439732
    56 0.729364 0.000001 -0.000001 0.000002 -0.000005 -0.244305
    57 -5.224821 0.939095 0.088129 0.000000 0.000000 0.000000
  time 3
    0 -2.984935 18.039614 -12.406354 1.570796 0.000000 1.570704
    1 0.000000 0.000000 0.000000 0.000000 0.000000 0.000000
    2 -8.878141 -0.048395 -1.142586 0.000000 0.000000 0.000000
    3 -11.856707 1.258262 0.000000 0.003679 -0.017833 -0.095985
    4 -1.905335 1.742210 1.054457 0.000000 0.000000 0.000000
    5 -0.970945 0.822710 0.686170 0.000000 0.000000 0.000000
    6 -1.841841 -0.252357 -0.413176 0.000000 1.570796 0.000000
    7 0.000000 0.000000 0.000000 0.000000 0.000000 0.000000
    8 -1.655434 -1.018065 -0.614096 0.000000 1.570796 0.000000
    9 0.000000 0.000000 0.000000 0.000000 0.000000 0.000000
    10 -1.431746 -1.846478 -1.038433 0.000000 1.570796 0.000000
    11 0.000000 0.000000 0.000000 0.000000 0.000000 0.000000
    12 -13.236908 -3.969946 9.111436 0.000000 0.000000 0.000000
    13 0.000000 0.000000 -0.000001 0.000000 0.000000 0.000000
    14 -13.544948 3.169006 -6.601964 0.000000 0.000000 0.079608
    15 -3.124472 1.877203 -0.786219 0.000000 0.000000 0.000000
    16 -1.143314 1.676258 -0.050264 0.000000 0.000000 0.000000
    17 -0.625989 1.347690 -0.418034 0.000000 0.000000 0.000000
    18 18.704233 -0.000006 5.198635 -1.570799 -1.391899 -3.141592
    19 2.033364 1.000774 -1.937603 -1.668502 1.286510 2.942925
    20 11.999999 -6.000000 -17.000002 1.251808 0.386067 -1.905058
    21 0.000000 0.200000 0.500000 1.396263 0.087267 3.071779
    22 0.500000 1.000000 -0.500000 -1.570796 0.087267 3.141593
    23 2.000000 1.000000 0.000000 -1.570796 -0.174533 -2.967060
    24 0.000000 1.000000 0.000000 -0.523599 -0.523599 2.967060
    25 0.100000 0.400000 0.000000 -0.785398 -0.174533 -2.617994
    26 3.859824 -0.148947 -1.331303 -0.551135 -0.052360 -0.523599
    27 1.719423 0.000001 0.000008 0.000000 0.174533 -1.047198
    28 1.099655 -0.000001 0.000001 -0.211542 0.321749 -0.674088
    29 3.883657 -0.050343 -0.431064 0.174533 -0.174533 -1.047198
    30 1.719567 -0.000001 -0.000003 0.093309 -0.209081 -1.047198
    31 1.209173 -0.000001 0.000006 -0.174533 0.000000 -1.308997
    32 3.942300 0.050313 0.431023 0.305925 -0.165323 -1.483530
    33 1.539090 0.000021 0.000008 0.052360 -0.017453 -0.488692
    34 1.196317 -0.000016 -0.000008 0.000000 -0.028828 -1.745329
    35 3.859685 -0.132581 1.193087 0.688557 -0.175547 -1.745329
    36 1.312558 -0.000014 -0.000005 0.022217 -0.060427 -0.506349
    37 0.729370 0.000003 0.000003 0.000000 -0.000001 -0.872665
    38 2.033350 1.000771 1.937653 1.596645 -1.286513 2.942953
    39 -0.000001 -10.000000 6.999999 0.785398 -0.349066 -1.570796
    40 -5.000000 4.000000 -2.500001 3.141593 0.471239 3.141593
    41 -2.000000 1.000000 -1.500000 -0.174533 0.698132 2.879793
    42 -1.000000 0.000000 0.000000 -1.570796 0.000000 1.570796
    43 0.000000 0.000000 0.300000 -1.570796 0.174533 2.094395
    44 0.000001 0.000000 0.300000 -1.570796 0.174533 2.443461
    45 3.859851 -0.137960 1.332479 0.181664 -0.031383 -0.112198
    46 1.719425 0.000009 -0.000001 -0.000001 0.004082 -0.363003
    47 1.099660 0.000001 0.000008 0.000004 0.002604 -0.244324
    48 3.883677 -0.046777 0.431460 -0.337126 0.081783 -0.504719
    49 1.719571 0.000013 -0.000012 -0.000001 0.005522 -0.366469
    50 1.209180 -0.000007 0.000000 -0.000001 0.003080 -0.216402
    51 3.942316 0.046764 -0.431422 -0.328104 0.023120 -0.883785
    52 1.539088 -0.000007 0.000004 -0.000001 0.000001 -0.247796
    53 1.196322 -0.000008 0.000005 -0.000001 0.000002 -0.430798
    54 3.859692 -0.142411 -1.191952 -0.637508 0.168950 -1.019603
    55 1.312564 -0.000022 0.000010 0.000007 -0.000009 -0.439732
    56 0.729364 0.000001 -0.000001 0.000002 -0.000005 -0.244305
    57 -5.224821 0.939095 0.088129 0.000000 0.000000 0.000000
  time 4
    0 -2.875556 17.512254 -12.304789 1.570796 0.000000 1.570704
    1 0.000000 0.000000 0.000000 0.000000 0.000000 0.000000
    2 -8.878141 -0.048395 -1.142586 0.000000 0.000000 0.000000
    3 -11.856707 1.258262 0.000000 0.002013 0.007934 0.007670
    4 -1.905335 1.742210 1.054457 0.000000 0.000000 0.000000
    5 -0.970945 0.822710 0.686170 0.000000 0.000000 0.000000
    6 -1.841841 -0.252357 -0.413176 0.000000 1.570796 0.000000
    7 0.000000 0.000000 0.000000 0.000000 0.000000 0.000000
    8 -1.655434 -1.018065 -0.614096 0.000000 1.570796 0.000000
    9 0.000000 0.000000 0.000000 0.000000 0.000000 0.000000
    10 -1.431746 -1.846478 -1.038433 0.000000 1.570796 0.000000
    11 0.000000 0.000000 0.000000 0.000000 0.000000 0.000000
    12 -13.236908 -3.969946 9.111436 0.000000 0.000000 0.000000
    13 0.000000 0.000000 -0.000001 0.000000 0.000000 0.000000
    14 -13.544948 3.169006 -6.601964 0.000000 0.000000 0.181040
    15 -3.124472 1.877203 -0.786219 0.000000 0.000000 0.000000
    16 -1.143314 1.676258 -0.050264 0.000000 0.000000 0.000000
    17 -0.625989 1.347690 -0.418034 0.000000 0.000000 0.000000
    18 18.704233 -0.000006 5.198635 -1.570799 -1.391899 -3.141592
    19 2.033364 1.000774 -1.937603 -1.668502 1.286510 2.942925
    20 11.999999 -6.000000 -17.000002 1.251808 0.386067 -1.905058
    21 0.000000 0.200000 0.500000 1.396263 0.087267 3.071779
    22 0.500000 1.000000 -0.500000 -1.570796 0.087267 3.141593
    23 2.000000 1.000000 0.000000 -1.570796 -0.174533 -2.967060
    24 0.000000 1.000000 0.000000 -0.523599 -0.523599 2.967060
    25 0.100000 0.400000 0.000000 -0.785398 -0.174533 -2.617994
    26 3.859824 -0.148947 -1.331303 -0.551135 -0.052360 -0.523599
    27 1.719423 0.000001 0.000008 0.000000 0.174533 -1.047198
    28 1.099655 -0.000001 0.000001 -0.211542 0.321749 -0.674088
    29 3.883657 -0.050343 -0.431064 0.174533 -0.174533 -1.047198
    30 1.719567 -0.000001 -0.000003 0.093309 -0.209081 -1.047198
    31 1.209173 -0.000001 0.000006 -0.174533 0.000000 -1.308997
    32 3.942300 0.050313 0.431023 0.305925 -0.165323 -1.483530
    33 1.539090 0.000021 0.000008 0.052360 -0.017453 -0.488692
    34 1.196317 -0.000016 -0.000008 0.000000 -0.028828 -1.745329
    35 3.859685 -0.132581 1.193087 0.688557 -0.175547 -1.745329
    36 1.312558 -0.000014 -0.000005 0.022217 -0.060427 -0.506349
    37 0.729370 0.000003 0.000003 0.000000 -0.000001 -0.872665
    38 2.033350 1.000771 1.937653 1.596645 -1.286513 2.942953
    39 -0.000001 -10.000000 6.999999 0.785398 -0.349066 -1.570796
    40 -5.000000 4.000000 -2.500001 3.141593 0.471239 3.141593
    41 -2.000000 1.000000 -1.500000 -0.174533 0.698132 2.879793
    42 -1.000000 0.000000 0.000000 -1.570796 0.000000 1.570796
    43 0.000000 0.000000 0.300000 -1.570796 0.174533 2.094395
    44 0.000001 0.000000 0.300000 -1.570796 0.174533 2.443461
    45 3.859851 -0.137960 1.332479 0.181664 -0.031383 -0.112198
    46 1.719425 0.000009 -0.000001 -0.000001 0.004082 -0.363003
    47 1.099660 0.000001 0.000008 0.000004 0.002604 -0.244324
    48 3.883677 -0.046777 0.431460 -0.337126 0.081783 -0.504719
    49 1.719571 0.000013 -0.000012 -0.000001 0.005522 -0.366469
    50 1.209180 -0.000007 0.000000 -0.000001 0.003080 -0.216402
    51 3.942316 0.046764 -0.431422 -0.328104 0.023120 -0.883785
    52 1.539088 -0.000007 0.000004 -0.000001 0.000001 -0.247796
    53 1.196322 -0.000008 0.000005 -0.000001 0.000002 -0.430798
    54 3.859692 -0.142411 -1.191952 -0.637508 0.168950 -1.019603
    55 1.312564 -0.000022 0.000010 0.000007 -0.000009 -0.439732
    56 0.729364 0.000001 -0.000001 0.000002 -0.000005 -0.244305
    57 -5.224821 0.939095 0.088129 0.000000 0.000000 0.000000
  time 5
    0 -2.547421 15.906736 -12.019624 1.570796 0.000000 1.570704
    1 0.000000 0.000000 0.000000 0.000000 0.000000 0.000000
    2 -8.878141 -0.048395 -1.142586 0.000000 0.000000 0.000000
    3 -11.856707 1.258262 0.000000 0.002157 0.026055 0.083137
    4 -1.905335 1.742210 1.054457 0.000000 0.000000 0.000000
    5 -0.970945 0.822710 0.686170 0.000000 0.000000 0.000000
    6 -1.841841 -0.252357 -0.413176 0.000000 1.570796 0.000000
    7 0.000000 0.000000 0.000000 0.000000 0.000000 0.000000
    8 -1.655434 -1.018065 -0.614096 0.000000 1.570796 0.000000
    9 0.000000 0.000000 0.000000 0.000000 0.000000 0.000000
    10 -1.431746 -1.846478 -1.038433 0.000000 1.570796 0.000000
    11 0.000000 0.000000 0.000000 0.000000 0.000000 0.000000
    12 -13.236908 -3.969946 9.111436 0.000000 0.000000 0.000000
    13 0.000000 0.000000 -0.000001 0.000000 0.000000 0.000000
    14 -13.544948 3.169006 -6.601964 0.000000 0.000000 0.237372
    15 -3.124472 1.877203 -0.786219 0.000000 0.000000 0.000000
    16 -1.143314 1.676258 -0.050264 0.000000 0.000000 0.000000
    17 -0.625989 1.347690 -0.418034 0.000000 0.000000 0.000000
    18 18.704233 -0.000006 5.198635 -1.570799 -1.391899 -3.141592
    19 2.033364 1.000774 -1.937603 -1.668502 1.286510 2.942925
    20 11.999999 -6.000000 -17.000002 1.251808 0.386067 -1.905058
    21 0.000000 0.200000 0.500000 1.396263 0.087267 3.071779
    22 0.500000 1.000000 -0.500000 -1.570796 0.087267 3.141593
    23 2.000000 1.000000 0.000000 -1.570796 -0.174533 -2.967060
    24 0.000000 1.000000 0.000000 -0.523599 -0.523599 2.967060
    25 0.100000 0.400000 0.000000 -0.785398 -0.174533 -2.617994
    26 3.859824 -0.148947 -1.331303 -0.551135 -0.052360 -0.523599
    27 1.719423 0.000001 0.000008 0.000000 0.174533 -1.047198
    28 1.099655 -0.000001 0.000001 -0.211542 0.321749 -0.674088
    29 3.883657 -0.050343 -0.431064 0.174533 -0.174533 -1.047198
    30 1.719567 -0.000001 -0.000003 0.093309 -0.209081 -1.047198
    31 1.209173 -0.000001 0.000006 -0.174533 0.000000 -1.308997
    32 3.942300 0.050313 0.431023 0.305925 -0.165323 -1.483530
    33 1.539090 0.000021 0.000008 0.052360 -0.017453 -0.488692
    34 1.196317 -0.000016 -0.000008 0.000000 -0.028828 -1.745329
    35 3.859685 -0.132581 1.193087 0.688557 -0.175547 -1.745329
    36 1.312558 -0.000014 -0.000005 0.022217 -0.060427 -0.506349
    37 0.729370 0.000003 0.000003 0.000000 -0.000001 -0.872665
    38 2.033350 1.000771 1.937653 1.596645 -1.286513 2.942953
    39 -0.000001 -10.000000 6.999999 0.785398 -0.349066 -1.570796
    40 -5.000000 4.000000 -2.500001 3.141593 0.471239 3.141593
    41 -2.000000 1.000000 -1.500000 -0.174533 0.698132 2.879793
    42 -1.000000 0.000000 0.000000 -1.570796 0.000000 1.570796
    43 0.000000 0.000000 0.300000 -1.570796 0.174533 2.094395
    44 0.000001 0.000000 0.300000 -1.570796 0.174533 2.443461
    45 3.859851 -0.137960 1.332479 0.181664 -0.031383 -0.112198
    46 1.719425 0.000009 -0.000001 -0.000001 0.004082 -0.363003
    47 1.099660 0.000001 0.000008 0.000004 0.002604 -0.244324
    48 3.883677 -0.046777 0.431460 -0.337126 0.081783 -0.504719
    49 1.719571 0.000013 -0.000012 -0.000001 0.005522 -0.366469
    50 1.209180 -0.000007 0.000000 -0.000001 0.003080 -0.216402
    51 3.942316 0.046764 -0.431422 -0.328104 0.023120 -0.883785
    52 1.539088 -0.000007 0.000004 -0.000001 0.000001 -0.247796
    53 1.196322 -0.000008 0.000005 -0.000001 0.000002 -0.430798
    54 3.859692 -0.142411 -1.191952 -0.637508 0.168950 -1.019603
    55 1.312564 -0.000022 0.000010 0.000007 -0.000009 -0.439732
    56 0.729364 0.000001 -0.000001 0.000002 -0.000005 -0.244305
    57 -5.224821 0.939095 0.088129 0.000000 0.000000 0.000000
  time 6
    0 -1.996623 13.230874 -11.535234 1.570796 0.000000 1.570704
    1 0.000000 0.000000 0.000000 0.000000 0.000000 0.000000
    2 -8.878141 -0.048395 -1.142586 0.000000 0.000000 0.000000
    3 -11.856707 1.258262 0.000000 0.000000 0.000000 0.000000
    4 -1.905335 1.742210 1.054457 0.000000 0.000000 0.000000
    5 -0.970945 0.822710 0.686170 0.000000 0.000000 0.000000
    6 -1.841841 -0.252357 -0.413176 0.000000 1.570796 0.000000
    7 0.000000 0.000000 0.000000 0.000000 0.000000 0.000000
    8 -1.655434 -1.018065 -0.614096 0.000000 1.570796 0.000000
    9 0.000000 0.000000 0.000000 0.000000 0.000000 0.000000
    10 -1.431746 -1.846478 -1.038433 0.000000 1.570796 0.000000
    11 0.000000 0.000000 0.000000 0.000000 0.000000 0.000000
    12 -13.236908 -3.969946 9.111436 0.000000 0.000000 0.000000
    13 0.000000 0.000000 -0.000001 0.000000 0.000000 0.000000
    14 -13.544948 3.169006 -6.601964 0.000000 0.000000 0.000000
    15 -3.124472 1.877203 -0.786219 0.000000 0.000000 0.000000
    16 -1.143314 1.676258 -0.050264 0.000000 0.000000 0.000000
    17 -0.625989 1.347690 -0.418034 0.000000 0.000000 0.000000
    18 18.704233 -0.000006 5.198635 -1.570799 -1.391899 -3.141592
    19 2.033364 1.000774 -1.937603 -1.668502 1.286510 2.942925
    20 11.999999 -6.000000 -17.000002 1.251808 0.386067 -1.905058
    21 0.000000 0.200000 0.500000 1.396263 0.087267 3.071779
    22 0.500000 1.000000 -0.500000 -1.570796 0.087267 3.141593
    23 2.000000 1.000000 0.000000 -1.570796 -0.174533 -2.967060
    24 0.000000 1.000000 0.000000 -0.523599 -0.523599 2.967060
    25 0.100000 0.400000 0.000000 -0.785398 -0.174533 -2.617994
    26 3.859824 -0.148947 -1.331303 -0.551135 -0.052360 -0.523599
    27 1.719423 0.000001 0.000008 0.000000 0.174533 -1.047198
    28 1.099655 -0.000001 0.000001 -0.211542 0.321749 -0.674088
    29 3.883657 -0.050343 -0.431064 0.174533 -0.174533 -1.047198
    30 1.719567 -0.000001 -0.000003 0.093309 -0.209081 -1.047198
    31 1.209173 -0.000001 0.000006 -0.174533 0.000000 -1.308997
    32 3.942300 0.050313 0.431023 0.305925 -0.165323 -1.483530
    33 1.539090 0.000021 0.000008 0.052360 -0.017453 -0.488692
    34 1.196317 -0.000016 -0.000008 0.000000 -0.028828 -1.745329
    35 3.859685 -0.132581 1.193087 0.688557 -0.175547 -1.745329
    36 1.312558 -0.000014 -0.000005 0.022217 -0.060427 -0.506349
    37 0.729370 0.000003 0.000003 0.000000 -0.000001 -0.872665
    38 2.033350 1.000771 1.937653 1.596645 -1.286513 2.942953
    39 -0.000001 -10.000000 6.999999 0.785398 -0.349066 -1.570796
    40 -5.000000 4.000000 -2.500001 3.141593 0.471239 3.141593
    41 -2.000000 1.000000 -1.500000 -0.174533 0.698132 2.879793
    42 -1.000000 0.000000 0.000000 -1.570796 0.000000 1.570796
    43 0.000000 0.000000 0.300000 -1.570796 0.174533 2.094395
    44 0.000001 0.000000 0.300000 -1.570796 0.174533 2.443461
    45 3.859851 -0.137960 1.332479 0.181664 -0.031383 -0.112198
    46 1.719425 0.000009 -0.000001 -0.000001 0.004082 -0.363003
    47 1.099660 0.000001 0.000008 0.000004 0.002604 -0.244324
    48 3.883677 -0.046777 0.431460 -0.337126 0.081783 -0.504719
    49 1.719571 0.000013 -0.000012 -0.000001 0.005522 -0.366469
    50 1.209180 -0.000007 0.000000 -0.000001 0.003080 -0.216402
    51 3.942316 0.046764 -0.431422 -0.328104 0.023120 -0.883785
    52 1.539088 -0.000007 0.000004 -0.000001 0.000001 -0.247796
    53 1.196322 -0.000008 0.000005 -0.000001 0.000002 -0.430798
    54 3.859692 -0.142411 -1.191952 -0.637508 0.168950 -1.019603
    55 1.312564 -0.000022 0.000010 0.000007 -0.000009 -0.439732
    56 0.729364 0.000001 -0.000001 0.000002 -0.000005 -0.244305
    57 -5.224821 0.939095 0.088129 0.000000 0.000000 0.000000
end
