// Created by Crowbar 0.71

$modelname "props_interiors\VendingMachine001.mdl"

$staticprop

$bodygroup "Body"
{
	studio "VendingMachineSoda01a_reference.smd"
}

$surfaceprop "metal"

$contents "solid"

$illumposition 0 0 0

$cdmaterials "models\props_interiors\"

$texturegroup skinfamilies
{
	{ "VendingMachine001"  }
	{ "VendingMachine002" }
	{ "VendingMachine003" }
}

$cbox 0 0 0 0 0 0

$bbox -21.661 -26.375 -48.285 21.423 26.334 48.293

$definebone "static_prop" "" 0 0 0 0 0 0 0 0 0 0 0 0


$sequence "idle" {
	"vendingmachinesoda01a_anims\idle.smd"
	fadein 0.2
	fadeout 0.2
	fps 30
}