// Created by Crowbar 0.71
version 1
nodes
  0 "ValveBiped.Bip01_Spine4" -1
  1 "ValveBiped.Bip01_L_Clavicle" 0
  2 "ValveBiped.Bip01_L_UpperArm" 1
  3 "ValveBiped.Bip01_L_Forearm" 2
  4 "ValveBiped.Bip01_L_Hand" 3
  5 "ValveBiped.Bip01_L_Finger4" 4
  6 "ValveBiped.Bip01_L_Finger41" 5
  7 "ValveBiped.Bip01_L_Finger42" 6
  8 "ValveBiped.Bip01_L_Finger3" 4
  9 "ValveBiped.Bip01_L_Finger31" 8
  10 "ValveBiped.Bip01_L_Finger32" 9
  11 "ValveBiped.Bip01_L_Finger2" 4
  12 "ValveBiped.Bip01_L_Finger21" 11
  13 "ValveBiped.Bip01_L_Finger22" 12
  14 "ValveBiped.Bip01_L_Finger1" 4
  15 "ValveBiped.Bip01_L_Finger11" 14
  16 "ValveBiped.Bip01_L_Finger12" 15
  17 "ValveBiped.Bip01_L_Finger0" 4
  18 "ValveBiped.Bip01_L_Finger01" 17
  19 "ValveBiped.Bip01_L_Finger02" 18
  20 "ValveBiped.Bip01_R_Clavicle" 0
  21 "ValveBiped.Bip01_R_UpperArm" 20
  22 "ValveBiped.Bip01_R_Forearm" 21
  23 "ValveBiped.Bip01_R_Hand" 22
  24 "ValveBiped.Bip01_R_Finger4" 23
  25 "ValveBiped.Bip01_R_Finger41" 24
  26 "ValveBiped.Bip01_R_Finger42" 25
  27 "ValveBiped.Bip01_R_Finger3" 23
  28 "ValveBiped.Bip01_R_Finger31" 27
  29 "ValveBiped.Bip01_R_Finger32" 28
  30 "ValveBiped.Bip01_R_Finger2" 23
  31 "ValveBiped.Bip01_R_Finger21" 30
  32 "ValveBiped.Bip01_R_Finger22" 31
  33 "ValveBiped.Bip01_R_Finger1" 23
  34 "ValveBiped.Bip01_R_Finger11" 33
  35 "ValveBiped.Bip01_R_Finger12" 34
  36 "ValveBiped.Bip01_R_Finger0" 23
  37 "ValveBiped.Bip01_R_Finger01" 36
  38 "ValveBiped.Bip01_R_Finger02" 37
  39 "ValveBiped.square" 23
  40 "ValveBiped.clip" 23
end
skeleton
  time 0
    0 0.000005 3.335938 -8.632813 -1.570770 -1.391894 -1.570817
    1 2.033349 1.000767 1.937660 1.596637 -1.286515 2.942961
    2 6.028141 0.000000 0.000000 -1.579298 0.357998 -1.144967
    3 11.692554 0.000001 0.000000 0.000000 0.000000 -1.541487
    4 11.481670 0.000001 -0.000031 1.573183 -0.028079 0.044374
    5 3.859711 -0.142405 -1.191975 -0.476786 0.134335 -0.965120
    6 1.312553 -0.000004 0.000002 0.000000 0.000000 -0.279222
    7 0.729365 -0.000004 -0.000003 0.000000 0.000000 -0.096887
    8 3.942337 0.046767 -0.431443 -0.145093 0.087432 -0.741690
    9 1.539097 0.000000 0.000000 0.000000 0.000000 -0.309312
    10 1.196325 -0.000002 -0.000001 0.000000 0.000000 -0.521171
    11 3.883698 -0.046765 0.431443 0.085902 0.021830 -0.587867
    12 1.719570 -0.000004 -0.000001 0.000000 0.005516 -0.366478
    13 1.209169 -0.000004 0.000000 0.000000 0.003084 -0.216400
    14 3.859863 -0.137946 1.332466 0.354449 -0.042750 -0.531718
    15 1.719431 0.000002 0.000000 0.000000 0.004074 -0.363009
    16 1.099667 0.000000 -0.000001 0.000000 0.002596 -0.244331
    17 0.806053 -0.348926 1.321258 -1.166389 -0.626622 -0.921958
    18 1.789778 -0.000002 0.000002 0.000000 0.000000 0.189106
    19 1.207005 0.000000 0.000002 0.000000 0.000000 0.306029
    20 2.033356 1.000772 -1.937610 -1.668474 1.286518 2.942953
    21 6.028145 0.000000 0.000000 1.415745 0.359470 -1.181160
    22 11.692554 0.000001 0.000002 0.000000 0.000000 -1.106156
    23 11.481699 0.000001 0.000001 -1.715385 -0.567218 0.743381
    24 3.859680 -0.132567 1.193109 0.432208 -0.155862 -0.861348
    25 1.312555 -0.000002 0.000001 0.000000 0.000000 -1.191950
    26 0.729365 0.000000 -0.000003 0.000000 0.000000 -1.063346
    27 3.942307 0.050327 0.431044 0.232421 0.000609 -0.853329
    28 1.539099 -0.000002 0.000000 0.000000 0.000000 -0.973379
    29 1.196321 0.000010 0.000000 0.000000 0.000000 -1.451289
    30 3.883659 -0.050321 -0.431042 0.066988 0.050241 -0.694790
    31 1.719578 0.000002 0.000000 0.000000 0.000000 -1.251037
    32 1.209185 0.000002 0.000000 0.000000 -0.000015 -1.141145
    33 3.859840 -0.148937 -1.331282 -0.248859 0.263122 -0.072121
    34 1.719421 0.000002 0.000000 0.000000 0.000000 -0.676754
    35 1.099669 0.000002 -0.000001 0.000000 0.000000 -1.021285
    36 0.806023 -0.359837 -1.318334 1.349682 0.343492 -0.771448
    37 1.789782 -0.000002 -0.000004 0.000000 0.000000 0.397500
    38 1.206999 0.000002 0.000000 0.000000 0.000000 0.989031
    39 6.104527 -1.468679 -3.530282 -1.564198 -0.011689 -1.581440
    40 3.820740 -1.409995 -0.589409 -1.564198 -0.011689 -1.581440
  time 1
    0 0.000005 3.335938 -8.632813 -1.570770 -1.391894 -1.570817
    1 2.029443 1.000767 1.937660 1.227531 0.585916 1.191008
    2 0.000613 6.027528 0.000000 0.118858 1.476563 1.434220
    3 11.692554 0.000001 0.000000 0.000000 0.000000 -1.131304
    4 11.481670 0.000001 -0.000031 -0.162851 -0.802571 1.425356
    5 3.859711 -0.142405 -1.191975 -0.478068 0.090867 -0.962255
    6 1.312553 -0.000004 0.000002 0.000000 -0.000707 -0.438426
    7 0.729365 -0.000004 -0.000003 0.000000 0.000000 -0.233336
    8 3.942337 0.046767 -0.431443 -0.160840 0.031068 -0.984486
    9 1.539097 0.000000 0.000000 -0.000024 0.003799 -0.263778
    10 1.196325 -0.000002 -0.000001 0.000000 0.000000 -0.392787
    11 3.883698 -0.046765 0.431443 0.084919 0.001672 -0.671603
    12 1.719570 -0.000004 -0.000001 -0.003919 0.016410 -0.720259
    13 1.209169 -0.000004 0.000000 -0.000815 0.002976 -0.484706
    14 3.859863 -0.137946 1.332466 0.357757 -0.048694 -0.604285
    15 1.719431 0.000002 0.000000 0.000204 -0.009313 -0.439851
    16 1.099667 0.000000 -0.000001 -0.000120 0.002596 -0.292146
    17 0.806053 -0.348926 1.321258 -1.473871 -0.631947 -0.380484
    18 1.789778 -0.000002 0.000002 0.002673 0.043863 0.350107
    19 1.207005 0.000000 0.000002 0.000000 0.000000 0.541339
    20 2.033356 1.000772 -1.937610 -1.668474 1.286518 2.942953
    21 6.028145 0.000000 0.000000 1.415745 0.359470 -1.181160
    22 11.692554 0.000001 0.000002 0.000000 0.000000 -1.106156
    23 11.481699 0.000001 0.000001 -1.715385 -0.567218 0.743381
    24 3.859680 -0.132567 1.193109 0.432208 -0.155862 -0.861348
    25 1.312555 -0.000002 0.000001 0.000000 0.000000 -1.191950
    26 0.729365 0.000000 -0.000003 0.000000 0.000000 -1.063346
    27 3.942307 0.050327 0.431044 0.232421 0.000609 -0.853329
    28 1.539099 -0.000002 0.000000 0.000000 0.000000 -0.973379
    29 1.196321 0.000010 0.000000 0.000000 0.000000 -1.451289
    30 3.883659 -0.050321 -0.431042 0.066988 0.050241 -0.694790
    31 1.719578 0.000002 0.000000 0.000000 0.000000 -1.251037
    32 1.209185 0.000002 0.000000 0.000000 -0.000015 -1.141145
    33 3.859840 -0.148937 -1.331282 -0.248859 0.263122 -0.072121
    34 1.719421 0.000002 0.000000 0.000000 0.000000 -0.676754
    35 1.099669 0.000002 -0.000001 0.000000 0.000000 -1.021285
    36 0.806023 -0.359837 -1.318334 1.349682 0.343492 -0.771448
    37 1.789782 -0.000002 -0.000004 0.000000 0.000000 0.397500
    38 1.206999 0.000002 0.000000 0.000000 0.000000 0.989031
    39 6.104527 -1.468679 -3.530282 -1.564198 -0.011689 -1.581440
    40 3.820740 -1.409995 -0.589409 -1.564198 -0.011689 -1.581440
  time 2
    0 0.000005 3.335938 -8.632813 -1.570770 -1.391894 -1.570817
    1 2.029443 1.000767 1.937660 1.227531 0.585916 1.191008
    2 0.000613 6.027528 0.000000 0.132479 1.454805 1.445877
    3 11.692554 0.000001 0.000000 0.000000 0.000000 -1.165274
    4 11.481670 0.000001 -0.000031 -0.084439 -0.762397 1.446760
    5 3.859711 -0.142405 -1.191975 -0.478044 0.090879 -0.962087
    6 1.312553 -0.000004 0.000002 0.000000 -0.000623 -0.438581
    7 0.729365 -0.000004 -0.000003 0.000000 0.000000 -0.233546
    8 3.942337 0.046767 -0.431443 -0.160828 0.031056 -0.984342
    9 1.539097 0.000000 0.000000 -0.000024 0.003835 -0.263919
    10 1.196325 -0.000002 -0.000001 0.000000 0.000000 -0.392989
    11 3.883698 -0.046765 0.431443 0.084919 0.001660 -0.671531
    12 1.719570 -0.000004 -0.000001 -0.003919 0.016410 -0.720354
    13 1.209169 -0.000004 0.000000 -0.000815 0.002976 -0.484795
    14 3.859863 -0.137946 1.332466 0.357745 -0.048730 -0.604165
    15 1.719431 0.000002 0.000000 0.000204 -0.009337 -0.440001
    16 1.099667 0.000000 -0.000001 -0.000120 0.002596 -0.292268
    17 0.806053 -0.348926 1.321258 -1.473903 -0.632012 -0.380444
    18 1.789778 -0.000002 0.000002 0.002673 0.043875 0.350155
    19 1.207005 0.000000 0.000002 0.000000 0.000000 0.541423
    20 2.033356 1.000772 -1.937610 -1.668474 1.286518 2.942953
    21 6.028145 0.000000 0.000000 1.415292 0.372603 -1.183023
    22 11.692554 0.000001 0.000002 0.000000 0.000000 -1.099464
    23 11.481699 0.000001 0.000001 -1.652889 -0.561460 0.765118
    24 3.859680 -0.132567 1.193109 0.432208 -0.155862 -0.861348
    25 1.312555 -0.000002 0.000001 0.000000 0.000000 -1.191950
    26 0.729365 0.000000 -0.000003 0.000000 0.000000 -1.063371
    27 3.942307 0.050327 0.431044 0.232421 0.000609 -0.853329
    28 1.539099 -0.000002 0.000000 0.000000 0.000000 -0.973357
    29 1.196321 0.000010 0.000000 0.000000 0.000000 -1.451289
    30 3.883659 -0.050321 -0.431042 0.066988 0.050241 -0.694790
    31 1.719578 0.000002 0.000000 0.000000 0.000000 -1.251037
    32 1.209185 0.000002 0.000000 0.000000 -0.000015 -1.141145
    33 3.859840 -0.148937 -1.331282 -0.248859 0.263122 -0.072135
    34 1.719421 0.000002 0.000000 0.000000 0.000000 -0.676754
    35 1.099669 0.000002 -0.000001 0.000000 0.000000 -1.021285
    36 0.806023 -0.359837 -1.318334 1.349682 0.343492 -0.771448
    37 1.789782 -0.000002 -0.000004 0.000000 0.000000 0.397500
    38 1.206999 0.000002 0.000000 0.000000 0.000000 0.989031
    39 6.104527 -1.468679 -3.530282 -1.564198 -0.011689 -1.581440
    40 3.820740 -1.409995 -0.589409 -1.564198 -0.011689 -1.581440
  time 3
    0 0.000005 3.335938 -8.632813 -1.570770 -1.391894 -1.570817
    1 2.029443 1.000767 1.937660 1.227531 0.585916 1.191008
    2 0.000613 6.027528 0.000000 -0.009710 1.404704 1.296692
    3 11.692554 0.000001 0.000000 0.000000 0.000000 -1.198368
    4 11.481670 0.000001 -0.000031 0.047219 -0.719240 1.450741
    5 3.859711 -0.142405 -1.191975 -0.478056 0.090903 -0.962219
    6 1.312553 -0.000004 0.000002 0.000000 -0.000683 -0.438450
    7 0.729365 -0.000004 -0.000003 0.000000 0.000000 -0.233368
    8 3.942337 0.046767 -0.431443 -0.160840 0.031092 -0.984462
    9 1.539097 0.000000 0.000000 -0.000024 0.003799 -0.263792
    10 1.196325 -0.000002 -0.000001 0.000000 0.000000 -0.392821
    11 3.883698 -0.046765 0.431443 0.084919 0.001696 -0.671591
    12 1.719570 -0.000004 -0.000001 -0.003919 0.016410 -0.720278
    13 1.209169 -0.000004 0.000000 -0.000815 0.002976 -0.484706
    14 3.859863 -0.137946 1.332466 0.357757 -0.048682 -0.604273
    15 1.719431 0.000002 0.000000 0.000204 -0.009313 -0.439868
    16 1.099667 0.000000 -0.000001 -0.000108 0.002596 -0.292146
    17 0.806053 -0.348926 1.321258 -1.473871 -0.631947 -0.380484
    18 1.789778 -0.000002 0.000002 0.002673 0.043875 0.350131
    19 1.207005 0.000000 0.000002 0.000000 0.000000 0.541381
    20 2.033356 1.000772 -1.937610 -1.668474 1.286518 2.942953
    21 6.028145 0.000000 0.000000 1.418897 0.416581 -1.183169
    22 11.692554 0.000001 0.000002 0.000000 0.000000 -1.079689
    23 11.481699 0.000001 0.000001 -1.547361 -0.545750 0.763336
    24 3.859680 -0.132567 1.193109 0.432208 -0.155862 -0.861348
    25 1.312555 -0.000002 0.000001 0.000000 0.000000 -1.191996
    26 0.729365 0.000000 -0.000003 0.000000 0.000000 -1.063346
    27 3.942307 0.050327 0.431044 0.232421 0.000609 -0.853329
    28 1.539099 -0.000002 0.000000 0.000000 0.000000 -0.973401
    29 1.196321 0.000010 0.000000 0.000000 0.000000 -1.451289
    30 3.883659 -0.050321 -0.431042 0.066988 0.050241 -0.694790
    31 1.719578 0.000002 0.000000 0.000000 0.000000 -1.251037
    32 1.209185 0.000002 0.000000 0.000000 -0.000015 -1.141145
    33 3.859840 -0.148937 -1.331282 -0.248859 0.263122 -0.072135
    34 1.719421 0.000002 0.000000 0.000000 0.000000 -0.676754
    35 1.099669 0.000002 -0.000001 0.000000 0.000000 -1.021285
    36 0.806023 -0.359837 -1.318334 1.349682 0.343492 -0.771448
    37 1.789782 -0.000002 -0.000004 0.000000 0.000000 0.397500
    38 1.206999 0.000002 0.000000 0.000000 0.000000 0.989031
    39 6.104527 -1.468679 -3.530282 -1.564198 -0.011689 -1.581440
    40 3.820740 -1.409995 -0.589409 -1.564198 -0.011689 -1.581440
  time 4
    0 0.000005 3.335938 -8.632813 -1.570770 -1.391894 -1.570817
    1 2.029443 1.000767 1.937660 1.227531 0.585916 1.191008
    2 0.000613 6.027528 0.000000 -0.223623 1.317061 1.065161
    3 11.692554 0.000001 0.000000 0.000000 0.000000 -1.212453
    4 11.481670 0.000001 -0.000031 0.140095 -0.702124 1.425492
    5 3.859711 -0.142405 -1.191975 -0.477972 0.090963 -0.961476
    6 1.312553 -0.000004 0.000002 0.000000 -0.000276 -0.439205
    7 0.729365 -0.000004 -0.000003 0.000000 0.000000 -0.234337
    8 3.942337 0.046767 -0.431443 -0.160804 0.031056 -0.983814
    9 1.539097 0.000000 0.000000 -0.000024 0.003967 -0.264497
    10 1.196325 -0.000002 -0.000001 0.000000 0.000000 -0.393828
    11 3.883698 -0.046765 0.431443 0.084919 0.001636 -0.671279
    12 1.719570 -0.000004 -0.000001 -0.003919 0.016422 -0.720676
    13 1.209169 -0.000004 0.000000 -0.000815 0.002976 -0.485105
    14 3.859863 -0.137946 1.332466 0.357733 -0.048838 -0.603685
    15 1.719431 0.000002 0.000000 0.000204 -0.009432 -0.440585
    16 1.099667 0.000000 -0.000001 -0.000120 0.002596 -0.292818
    17 0.806053 -0.348926 1.321258 -1.474063 -0.632287 -0.380283
    18 1.789778 -0.000002 0.000002 0.002685 0.043959 0.350382
    19 1.207005 0.000000 0.000002 0.000000 0.000000 0.541799
    20 2.033356 1.000772 -1.937610 -1.668474 1.286518 2.942953
    21 6.028145 0.000000 0.000000 1.429033 0.511924 -1.178934
    22 11.692554 0.000001 0.000002 0.000000 0.000000 -1.049237
    23 11.481699 0.000001 0.000001 -1.480271 -0.520354 0.729212
    24 3.859680 -0.132567 1.193109 0.432208 -0.155862 -0.861348
    25 1.312555 -0.000002 0.000001 0.000000 0.000000 -1.191950
    26 0.729365 0.000000 -0.000003 0.000000 0.000000 -1.063346
    27 3.942307 0.050327 0.431044 0.232421 0.000609 -0.853329
    28 1.539099 -0.000002 0.000000 0.000000 0.000000 -0.973379
    29 1.196321 0.000010 0.000000 0.000000 0.000000 -1.451289
    30 3.883659 -0.050321 -0.431042 0.066988 0.050241 -0.694790
    31 1.719578 0.000002 0.000000 0.000000 0.000000 -1.251037
    32 1.209185 0.000002 0.000000 0.000000 -0.000015 -1.141145
    33 3.859840 -0.148937 -1.331282 -0.248859 0.263122 -0.072135
    34 1.719421 0.000002 0.000000 0.000000 0.000000 -0.676754
    35 1.099669 0.000002 -0.000001 0.000000 0.000000 -1.021285
    36 0.806023 -0.359837 -1.318334 1.349682 0.343492 -0.771448
    37 1.789782 -0.000002 -0.000004 0.000000 0.000000 0.397500
    38 1.206999 0.000002 0.000000 0.000000 0.000000 0.989031
    39 6.104527 -1.468679 -3.530282 -1.564198 -0.011689 -1.581440
    40 3.820740 -1.409995 -0.589409 -1.564198 -0.011689 -1.581440
  time 5
    0 0.000005 3.335938 -8.632813 -1.570770 -1.391894 -1.570817
    1 2.029443 1.000767 1.937660 1.227531 0.585916 1.191008
    2 0.000613 6.027528 0.000000 -0.370221 1.190261 0.892851
    3 11.692554 0.000001 0.000000 0.000000 0.000000 -1.208798
    4 11.481670 0.000001 -0.000031 0.204096 -0.679000 1.395039
    5 3.859711 -0.142405 -1.191975 -0.477948 0.091011 -0.961272
    6 1.312553 -0.000004 0.000002 0.000000 -0.000144 -0.439468
    7 0.729365 -0.000004 -0.000003 0.000000 0.000000 -0.234660
    8 3.942337 0.046767 -0.431443 -0.160792 0.031068 -0.983647
    9 1.539097 0.000000 0.000000 -0.000024 0.004027 -0.264736
    10 1.196325 -0.000002 -0.000001 0.000000 0.000000 -0.394131
    11 3.883698 -0.046765 0.431443 0.084931 0.001636 -0.671208
    12 1.719570 -0.000004 -0.000001 -0.003931 0.016422 -0.720809
    13 1.209169 -0.000004 0.000000 -0.000815 0.002976 -0.485216
    14 3.859863 -0.137946 1.332466 0.357721 -0.048862 -0.603506
    15 1.719431 0.000002 0.000000 0.000204 -0.009480 -0.440836
    16 1.099667 0.000000 -0.000001 -0.000120 0.002596 -0.293063
    17 0.806053 -0.348926 1.321258 -1.474111 -0.632444 -0.380223
    18 1.789778 -0.000002 0.000002 0.002685 0.044007 0.350526
    19 1.207005 0.000000 0.000002 0.000000 0.000000 0.542029
    20 2.033356 1.000772 -1.937610 -1.668474 1.286518 2.942953
    21 6.028145 0.000000 0.000000 1.442094 0.650403 -1.170658
    22 11.692554 0.000001 0.000002 0.000000 0.000000 -0.992581
    23 11.481699 0.000001 0.000001 -1.440072 -0.494732 0.686507
    24 3.859680 -0.132567 1.193109 0.432208 -0.155862 -0.861348
    25 1.312555 -0.000002 0.000001 0.000000 0.000000 -1.191950
    26 0.729365 0.000000 -0.000003 0.000000 0.000000 -1.063346
    27 3.942307 0.050327 0.431044 0.232421 0.000609 -0.853329
    28 1.539099 -0.000002 0.000000 0.000000 0.000000 -0.973379
    29 1.196321 0.000010 0.000000 0.000000 0.000000 -1.451289
    30 3.883659 -0.050321 -0.431042 0.066988 0.050241 -0.694790
    31 1.719578 0.000002 0.000000 0.000000 0.000000 -1.251037
    32 1.209185 0.000002 0.000000 0.000000 -0.000015 -1.141145
    33 3.859840 -0.148937 -1.331282 -0.248859 0.263122 -0.072135
    34 1.719421 0.000002 0.000000 0.000000 0.000000 -0.676754
    35 1.099669 0.000002 -0.000001 0.000000 0.000000 -1.021285
    36 0.806023 -0.359837 -1.318334 1.349682 0.343492 -0.771448
    37 1.789782 -0.000002 -0.000004 0.000000 0.000000 0.397500
    38 1.206999 0.000002 0.000000 0.000000 0.000000 0.989031
    39 6.104527 -1.468679 -3.530282 -1.564198 -0.011689 -1.581440
    40 3.820740 -1.409995 -0.589409 -1.564198 -0.011689 -1.581440
  time 6
    0 0.000005 3.335938 -8.632813 -1.570770 -1.391894 -1.570817
    1 2.029443 1.000767 1.937660 1.227531 0.585916 1.191008
    2 0.000613 6.027528 0.000000 -0.440843 1.064639 0.798095
    3 11.692554 0.000001 0.000000 0.000000 0.000000 -1.183405
    4 11.481670 0.000001 -0.000031 0.273661 -0.648745 1.338884
    5 3.859711 -0.142405 -1.191975 -0.478020 0.090987 -0.961848
    6 1.312553 -0.000004 0.000002 0.000000 -0.000443 -0.438893
    7 0.729365 -0.000004 -0.000003 0.000000 0.000000 -0.233917
    8 3.942337 0.046767 -0.431443 -0.160828 0.031116 -0.984138
    9 1.539097 0.000000 0.000000 -0.000024 0.003895 -0.264201
    10 1.196325 -0.000002 -0.000001 0.000000 0.000000 -0.393358
    11 3.883698 -0.046765 0.431443 0.084919 0.001708 -0.671471
    12 1.719570 -0.000004 -0.000001 -0.003919 0.016410 -0.720486
    13 1.209169 -0.000004 0.000000 -0.000815 0.002976 -0.484906
    14 3.859863 -0.137946 1.332466 0.357745 -0.048730 -0.603961
    15 1.719431 0.000002 0.000000 0.000204 -0.009385 -0.440302
    16 1.099667 0.000000 -0.000001 -0.000120 0.002596 -0.292554
    17 0.806053 -0.348926 1.321258 -1.473967 -0.632182 -0.380384
    18 1.789778 -0.000002 0.000002 0.002685 0.043947 0.350346
    19 1.207005 0.000000 0.000002 0.000000 0.000000 0.541694
    20 2.033356 1.000772 -1.937610 -1.668474 1.286518 2.942953
    21 6.028145 0.000000 0.000000 1.453487 0.782106 -1.160277
    22 11.692554 0.000001 0.000002 0.000000 0.000000 -0.920812
    23 11.481699 0.000001 0.000001 -1.397131 -0.459774 0.632383
    24 3.859680 -0.132567 1.193109 0.432208 -0.155862 -0.861348
    25 1.312555 -0.000002 0.000001 0.000000 0.000000 -1.191973
    26 0.729365 0.000000 -0.000003 0.000000 0.000000 -1.063346
    27 3.942307 0.050327 0.431044 0.232421 0.000609 -0.853329
    28 1.539099 -0.000002 0.000000 0.000000 0.000000 -0.973379
    29 1.196321 0.000010 0.000000 0.000000 0.000000 -1.451289
    30 3.883659 -0.050321 -0.431042 0.066988 0.050241 -0.694790
    31 1.719578 0.000002 0.000000 0.000000 0.000000 -1.251037
    32 1.209185 0.000002 0.000000 0.000000 -0.000015 -1.141117
    33 3.859840 -0.148937 -1.331282 -0.248859 0.263122 -0.072135
    34 1.719421 0.000002 0.000000 0.000000 0.000000 -0.676754
    35 1.099669 0.000002 -0.000001 0.000000 0.000000 -1.021285
    36 0.806023 -0.359837 -1.318334 1.349682 0.343492 -0.771448
    37 1.789782 -0.000002 -0.000004 0.000000 0.000000 0.397500
    38 1.206999 0.000002 0.000000 0.000000 0.000000 0.989031
    39 6.104527 -1.468679 -3.530282 -1.564198 -0.011689 -1.581440
    40 3.820740 -1.409995 -0.589409 -1.564198 -0.011689 -1.581440
  time 7
    0 0.000005 3.335938 -8.632813 -1.570770 -1.391894 -1.570817
    1 2.029443 1.000767 1.937660 1.227531 0.585916 1.191008
    2 0.000613 6.027528 0.000000 -0.476508 0.954453 0.740659
    3 11.692554 0.000001 0.000000 0.000000 0.000000 -1.148070
    4 11.481670 0.000001 -0.000031 0.344603 -0.620953 1.260330
    5 3.859711 -0.142405 -1.191975 -0.478020 0.090987 -0.961872
    6 1.312553 -0.000004 0.000002 0.000000 -0.000372 -0.439049
    7 0.729365 -0.000004 -0.000003 0.000000 0.000000 -0.234062
    8 3.942337 0.046767 -0.431443 -0.160828 0.031104 -0.984138
    9 1.539097 0.000000 0.000000 -0.000024 0.003931 -0.264356
    10 1.196325 -0.000002 -0.000001 0.000000 0.000000 -0.393560
    11 3.883698 -0.046765 0.431443 0.084919 0.001684 -0.671531
    12 1.719570 -0.000004 -0.000001 -0.003919 0.016410 -0.720581
    13 1.209169 -0.000004 0.000000 -0.000815 0.002976 -0.484972
    14 3.859863 -0.137946 1.332466 0.357745 -0.048790 -0.603841
    15 1.719431 0.000002 0.000000 0.000204 -0.009444 -0.440602
    16 1.099667 0.000000 -0.000001 -0.000120 0.002596 -0.292798
    17 0.806053 -0.348926 1.321258 -1.473999 -0.632470 -0.380384
    18 1.789778 -0.000002 0.000002 0.002697 0.044031 0.350574
    19 1.207005 0.000000 0.000002 0.000000 0.000000 0.542071
    20 2.033356 1.000772 -1.937610 -1.668474 1.286518 2.942953
    21 6.028145 0.000000 0.000000 1.464138 0.892731 -1.147863
    22 11.692554 0.000001 0.000002 0.000000 0.000000 -0.854795
    23 11.481699 0.000001 0.000001 -1.354026 -0.413794 0.571988
    24 3.859680 -0.132567 1.193109 0.432208 -0.155862 -0.861348
    25 1.312555 -0.000002 0.000001 0.000000 0.000000 -1.191950
    26 0.729365 0.000000 -0.000003 0.000000 0.000000 -1.063396
    27 3.942307 0.050327 0.431044 0.232421 0.000609 -0.853329
    28 1.539099 -0.000002 0.000000 0.000000 0.000000 -0.973379
    29 1.196321 0.000010 0.000000 0.000000 0.000000 -1.451289
    30 3.883659 -0.050321 -0.431042 0.066988 0.050241 -0.694790
    31 1.719578 0.000002 0.000000 0.000000 0.000000 -1.251037
    32 1.209185 0.000002 0.000000 0.000000 -0.000015 -1.141145
    33 3.859840 -0.148937 -1.331282 -0.248859 0.263122 -0.072135
    34 1.719421 0.000002 0.000000 0.000000 0.000000 -0.676754
    35 1.099669 0.000002 -0.000001 0.000000 0.000000 -1.021285
    36 0.806023 -0.359837 -1.318334 1.349682 0.343492 -0.771448
    37 1.789782 -0.000002 -0.000004 0.000000 0.000000 0.397500
    38 1.206999 0.000002 0.000000 0.000000 0.000000 0.989031
    39 6.104527 -1.468679 -3.530282 -1.564198 -0.011689 -1.581440
    40 3.820740 -1.409995 -0.589409 -1.564198 -0.011689 -1.581440
  time 8
    0 0.000005 3.335938 -8.632813 -1.570770 -1.391894 -1.570817
    1 2.029443 1.000767 1.937660 1.227531 0.585916 1.191008
    2 0.000613 6.027528 0.000000 -0.497372 0.856388 0.698733
    3 11.692554 0.000001 0.000000 0.000000 0.000000 -1.105765
    4 11.481670 0.000001 -0.000031 0.413955 -0.594566 1.163857
    5 3.859711 -0.142405 -1.191975 -0.478068 0.090939 -0.962339
    6 1.312553 -0.000004 0.000002 0.000000 -0.000635 -0.438557
    7 0.729365 -0.000004 -0.000003 0.000000 0.000000 -0.233449
    8 3.942337 0.046767 -0.431443 -0.160840 0.031116 -0.984545
    9 1.539097 0.000000 0.000000 -0.000024 0.003823 -0.263877
    10 1.196325 -0.000002 -0.000001 0.000000 0.000000 -0.392888
    11 3.883698 -0.046765 0.431443 0.084919 0.001720 -0.671711
    12 1.719570 -0.000004 -0.000001 -0.003919 0.016410 -0.720316
    13 1.209169 -0.000004 0.000000 -0.000815 0.002976 -0.484728
    14 3.859863 -0.137946 1.332466 0.357757 -0.048682 -0.604237
    15 1.719431 0.000002 0.000000 0.000204 -0.009361 -0.440101
    16 1.099667 0.000000 -0.000001 -0.000120 0.002596 -0.292330
    17 0.806053 -0.348926 1.321258 -1.473887 -0.632195 -0.380524
    18 1.789778 -0.000002 0.000002 0.002685 0.043959 0.350358
    19 1.207005 0.000000 0.000002 0.000000 0.000000 0.541715
    20 2.033356 1.000772 -1.937610 -1.668474 1.286518 2.942953
    21 6.028145 0.000000 0.000000 1.475572 0.986999 -1.132957
    22 11.692554 0.000001 0.000002 0.000000 0.000000 -0.796560
    23 11.481699 0.000001 0.000001 -1.314136 -0.357080 0.509130
    24 3.859680 -0.132567 1.193109 0.432208 -0.155862 -0.861348
    25 1.312555 -0.000002 0.000001 0.000000 0.000000 -1.191950
    26 0.729365 0.000000 -0.000003 0.000000 0.000000 -1.063346
    27 3.942307 0.050327 0.431044 0.232421 0.000609 -0.853329
    28 1.539099 -0.000002 0.000000 0.000000 0.000000 -0.973379
    29 1.196321 0.000010 0.000000 0.000000 0.000000 -1.451289
    30 3.883659 -0.050321 -0.431042 0.066988 0.050241 -0.694790
    31 1.719578 0.000002 0.000000 0.000000 0.000000 -1.251037
    32 1.209185 0.000002 0.000000 0.000000 -0.000015 -1.141117
    33 3.859840 -0.148937 -1.331282 -0.248859 0.263122 -0.072135
    34 1.719421 0.000002 0.000000 0.000000 0.000000 -0.676754
    35 1.099669 0.000002 -0.000001 0.000000 0.000000 -1.021285
    36 0.806023 -0.359837 -1.318334 1.349682 0.343492 -0.771448
    37 1.789782 -0.000002 -0.000004 0.000000 0.000000 0.397500
    38 1.206999 0.000002 0.000000 0.000000 0.000000 0.989031
    39 6.104527 -1.468679 -3.530282 -1.564198 -0.011689 -1.581440
    40 3.820740 -1.409995 -0.589409 -1.564198 -0.011689 -1.581440
  time 9
    0 0.000005 3.335938 -8.632813 -1.570770 -1.391894 -1.570817
    1 2.029443 1.000767 1.937660 1.227531 0.585916 1.191008
    2 0.000613 6.027528 0.000000 -0.512173 0.765257 0.661508
    3 11.692554 0.000001 0.000000 0.000000 0.000000 -1.053468
    4 11.481670 0.000001 -0.000031 0.477797 -0.564851 1.053628
    5 3.859711 -0.142405 -1.191975 -0.478128 0.090891 -0.962830
    6 1.312553 -0.000004 0.000002 0.000000 -0.000935 -0.437994
    7 0.729365 -0.000004 -0.000003 0.000000 0.000000 -0.232755
    8 3.942337 0.046767 -0.431443 -0.160864 0.031140 -0.984965
    9 1.539097 0.000000 0.000000 -0.000024 0.003703 -0.263369
    10 1.196325 -0.000002 -0.000001 0.000000 0.000000 -0.392183
    11 3.883698 -0.046765 0.431443 0.084919 0.001768 -0.671903
    12 1.719570 -0.000004 -0.000001 -0.003919 0.016398 -0.720031
    13 1.209169 -0.000004 0.000000 -0.000815 0.002976 -0.484440
    14 3.859863 -0.137946 1.332466 0.357769 -0.048563 -0.604668
    15 1.719431 0.000002 0.000000 0.000192 -0.009253 -0.439517
    16 1.099667 0.000000 -0.000001 -0.000120 0.002596 -0.291800
    17 0.806053 -0.348926 1.321258 -1.473744 -0.631855 -0.380645
    18 1.789778 -0.000002 0.000002 0.002673 0.043863 0.350095
    19 1.207005 0.000000 0.000002 0.000000 0.000000 0.541276
    20 2.033356 1.000772 -1.937610 -1.668474 1.286518 2.942953
    21 6.028145 0.000000 0.000000 1.488922 1.072479 -1.115050
    22 11.692554 0.000001 0.000002 0.000000 0.000000 -0.739378
    23 11.481699 0.000001 0.000001 -1.280582 -0.291400 0.446315
    24 3.859680 -0.132567 1.193109 0.432208 -0.155862 -0.861348
    25 1.312555 -0.000002 0.000001 0.000000 0.000000 -1.191950
    26 0.729365 0.000000 -0.000003 0.000000 0.000000 -1.063346
    27 3.942307 0.050327 0.431044 0.232421 0.000609 -0.853329
    28 1.539099 -0.000002 0.000000 0.000000 0.000000 -0.973379
    29 1.196321 0.000010 0.000000 0.000000 0.000000 -1.451289
    30 3.883659 -0.050321 -0.431042 0.066988 0.050241 -0.694790
    31 1.719578 0.000002 0.000000 0.000000 0.000000 -1.251037
    32 1.209185 0.000002 0.000000 0.000000 -0.000015 -1.141145
    33 3.859840 -0.148937 -1.331282 -0.248859 0.263122 -0.072135
    34 1.719421 0.000002 0.000000 0.000000 0.000000 -0.676754
    35 1.099669 0.000002 -0.000001 0.000000 0.000000 -1.021285
    36 0.806023 -0.359837 -1.318334 1.349682 0.343492 -0.771448
    37 1.789782 -0.000002 -0.000004 0.000000 0.000000 0.397500
    38 1.206999 0.000002 0.000000 0.000000 0.000000 0.989031
    39 6.104527 -1.468679 -3.530282 -1.564198 -0.011689 -1.581440
    40 3.820740 -1.409995 -0.589409 -1.564198 -0.011689 -1.581440
  time 10
    0 0.000005 3.335938 -8.632813 -1.570770 -1.391894 -1.570817
    1 2.029443 1.000767 1.937660 1.227531 0.585916 1.191008
    2 0.000613 6.027528 0.000000 -0.523747 0.678791 0.624564
    3 11.692554 0.000001 0.000000 0.000000 0.000000 -0.990108
    4 11.481670 0.000001 -0.000031 0.531308 -0.531441 0.935028
    5 3.859711 -0.142405 -1.191975 -0.478140 0.090891 -0.962890
    6 1.312553 -0.000004 0.000002 0.000000 -0.000983 -0.437910
    7 0.729365 -0.000004 -0.000003 0.000000 0.000000 -0.232642
    8 3.942337 0.046767 -0.431443 -0.160876 0.031140 -0.985025
    9 1.539097 0.000000 0.000000 -0.000024 0.003679 -0.263285
    10 1.196325 -0.000002 -0.000001 0.000000 0.000000 -0.392049
    11 3.883698 -0.046765 0.431443 0.084919 0.001780 -0.671927
    12 1.719570 -0.000004 -0.000001 -0.003919 0.016398 -0.719974
    13 1.209169 -0.000004 0.000000 -0.000815 0.002976 -0.484396
    14 3.859863 -0.137946 1.332466 0.357781 -0.048539 -0.604740
    15 1.719431 0.000002 0.000000 0.000192 -0.009241 -0.439400
    16 1.099667 0.000000 -0.000001 -0.000120 0.002596 -0.291698
    17 0.806053 -0.348926 1.321258 -1.473728 -0.631777 -0.380665
    18 1.789778 -0.000002 0.000002 0.002673 0.043839 0.350035
    19 1.207005 0.000000 0.000002 0.000000 0.000000 0.541172
    20 2.033356 1.000772 -1.937610 -1.668474 1.286518 2.942953
    21 6.028145 0.000000 0.000000 1.505733 1.153053 -1.092715
    22 11.692554 0.000001 0.000002 0.000000 0.000000 -0.680128
    23 11.481699 0.000001 0.000001 -1.255725 -0.220148 0.384821
    24 3.859680 -0.132567 1.193109 0.432208 -0.155862 -0.861348
    25 1.312555 -0.000002 0.000001 0.000000 0.000000 -1.191973
    26 0.729365 0.000000 -0.000003 0.000000 0.000000 -1.063346
    27 3.942307 0.050327 0.431044 0.232421 0.000609 -0.853329
    28 1.539099 -0.000002 0.000000 0.000000 0.000000 -0.973401
    29 1.196321 0.000010 0.000000 0.000000 0.000000 -1.451289
    30 3.883659 -0.050321 -0.431042 0.066988 0.050241 -0.694790
    31 1.719578 0.000002 0.000000 0.000000 0.000000 -1.251037
    32 1.209185 0.000002 0.000000 0.000000 -0.000015 -1.141145
    33 3.859840 -0.148937 -1.331282 -0.248859 0.263122 -0.072135
    34 1.719421 0.000002 0.000000 0.000000 0.000000 -0.676754
    35 1.099669 0.000002 -0.000001 0.000000 0.000000 -1.021285
    36 0.806023 -0.359837 -1.318334 1.349682 0.343492 -0.771448
    37 1.789782 -0.000002 -0.000004 0.000000 0.000000 0.397500
    38 1.206999 0.000002 0.000000 0.000000 0.000000 0.989031
    39 6.104527 -1.468679 -3.530282 -1.564198 -0.011689 -1.581440
    40 3.820740 -1.409995 -0.589409 -1.564198 -0.011689 -1.581440
  time 11
    0 0.000005 3.335938 -8.632813 -1.570770 -1.391894 -1.570817
    1 2.029443 1.000767 1.937660 1.227531 0.585916 1.191008
    2 0.000613 6.027528 0.000000 -0.532880 0.598691 0.587150
    3 11.692554 0.000001 0.000000 0.000000 0.000000 -0.918268
    4 11.481670 0.000001 -0.000031 0.571521 -0.498808 0.813532
    5 3.859711 -0.142405 -1.191975 -0.478140 0.090879 -0.962974
    6 1.312553 -0.000004 0.000002 0.000000 -0.001043 -0.437790
    7 0.729365 -0.000004 -0.000003 0.000000 0.000000 -0.232496
    8 3.942337 0.046767 -0.431443 -0.160876 0.031152 -0.985097
    9 1.539097 0.000000 0.000000 -0.000024 0.003655 -0.263158
    10 1.196325 -0.000002 -0.000001 0.000000 0.000000 -0.391914
    11 3.883698 -0.046765 0.431443 0.084919 0.001792 -0.671939
    12 1.719570 -0.000004 -0.000001 -0.003919 0.016398 -0.719917
    13 1.209169 -0.000004 0.000000 -0.000815 0.002976 -0.484351
    14 3.859863 -0.137946 1.332466 0.357781 -0.048503 -0.604836
    15 1.719431 0.000002 0.000000 0.000192 -0.009205 -0.439250
    16 1.099667 0.000000 -0.000001 -0.000120 0.002596 -0.291555
    17 0.806053 -0.348926 1.321258 -1.473696 -0.631659 -0.380685
    18 1.789778 -0.000002 0.000002 0.002661 0.043803 0.349939
    19 1.207005 0.000000 0.000002 0.000000 0.000000 0.541025
    20 2.033356 1.000772 -1.937610 -1.668474 1.286518 2.942953
    21 6.028145 0.000000 0.000000 1.527839 1.227738 -1.064427
    22 11.692554 0.000001 0.000002 0.000000 0.000000 -0.620502
    23 11.481699 0.000001 0.000001 -1.241000 -0.147826 0.324933
    24 3.859680 -0.132567 1.193109 0.432208 -0.155862 -0.861348
    25 1.312555 -0.000002 0.000001 0.000000 0.000000 -1.191950
    26 0.729365 0.000000 -0.000003 0.000000 0.000000 -1.063346
    27 3.942307 0.050327 0.431044 0.232421 0.000609 -0.853329
    28 1.539099 -0.000002 0.000000 0.000000 0.000000 -0.973379
    29 1.196321 0.000010 0.000000 0.000000 0.000000 -1.451289
    30 3.883659 -0.050321 -0.431042 0.066988 0.050241 -0.694790
    31 1.719578 0.000002 0.000000 0.000000 0.000000 -1.251037
    32 1.209185 0.000002 0.000000 0.000000 -0.000015 -1.141145
    33 3.859840 -0.148937 -1.331282 -0.248859 0.263122 -0.072135
    34 1.719421 0.000002 0.000000 0.000000 0.000000 -0.676754
    35 1.099669 0.000002 -0.000001 0.000000 0.000000 -1.021285
    36 0.806023 -0.359837 -1.318334 1.349682 0.343492 -0.771448
    37 1.789782 -0.000002 -0.000004 0.000000 0.000000 0.397500
    38 1.206999 0.000002 0.000000 0.000000 0.000000 0.989031
    39 6.104527 -1.468679 -3.530282 -1.564198 -0.011689 -1.581440
    40 3.820740 -1.409995 -0.589409 -1.564198 -0.011689 -1.581440
  time 12
    0 0.000005 3.335938 -8.632813 -1.570770 -1.391894 -1.570817
    1 2.029443 1.000767 1.937660 1.227531 0.585916 1.191008
    2 0.000613 6.027528 0.000000 -0.540044 0.527093 0.549643
    3 11.692554 0.000001 0.000000 0.000000 0.000000 -0.841504
    4 11.481670 0.000001 -0.000031 0.597747 -0.471838 0.694932
    5 3.859711 -0.142405 -1.191975 -0.478152 0.090879 -0.963034
    6 1.312553 -0.000004 0.000002 0.000000 -0.001115 -0.437671
    7 0.729365 -0.000004 -0.000003 0.000000 0.000000 -0.232351
    8 3.942337 0.046767 -0.431443 -0.160876 0.031164 -0.985169
    9 1.539097 0.000000 0.000000 -0.000024 0.003631 -0.263059
    10 1.196325 -0.000002 -0.000001 0.000000 0.000000 -0.391746
    11 3.883698 -0.046765 0.431443 0.084919 0.001816 -0.671951
    12 1.719570 -0.000004 -0.000001 -0.003907 0.016398 -0.719841
    13 1.209169 -0.000004 0.000000 -0.000815 0.002976 -0.484285
    14 3.859863 -0.137946 1.332466 0.357781 -0.048455 -0.604932
    15 1.719431 0.000002 0.000000 0.000192 -0.009181 -0.439083
    16 1.099667 0.000000 -0.000001 -0.000120 0.002596 -0.291413
    17 0.806053 -0.348926 1.321258 -1.473664 -0.631541 -0.380706
    18 1.789778 -0.000002 0.000002 0.002661 0.043768 0.349843
    19 1.207005 0.000000 0.000002 0.000000 0.000000 0.540879
    20 2.033356 1.000772 -1.937610 -1.668474 1.286518 2.942953
    21 6.028145 0.000000 0.000000 1.557423 1.295318 -1.028468
    22 11.692554 0.000001 0.000002 0.000000 0.000000 -0.561929
    23 11.481699 0.000001 0.000001 -1.236824 -0.079905 0.266057
    24 3.859680 -0.132567 1.193109 0.432208 -0.155862 -0.861348
    25 1.312555 -0.000002 0.000001 0.000000 0.000000 -1.191950
    26 0.729365 0.000000 -0.000003 0.000000 0.000000 -1.063346
    27 3.942307 0.050327 0.431044 0.232421 0.000609 -0.853329
    28 1.539099 -0.000002 0.000000 0.000000 0.000000 -0.973379
    29 1.196321 0.000010 0.000000 0.000000 0.000000 -1.451289
    30 3.883659 -0.050321 -0.431042 0.066988 0.050241 -0.694790
    31 1.719578 0.000002 0.000000 0.000000 0.000000 -1.251037
    32 1.209185 0.000002 0.000000 0.000000 -0.000015 -1.141145
    33 3.859840 -0.148937 -1.331282 -0.248859 0.263122 -0.072135
    34 1.719421 0.000002 0.000000 0.000000 0.000000 -0.676754
    35 1.099669 0.000002 -0.000001 0.000000 0.000000 -1.021285
    36 0.806023 -0.359837 -1.318334 1.349682 0.343492 -0.771448
    37 1.789782 -0.000002 -0.000004 0.000000 0.000000 0.397500
    38 1.206999 0.000002 0.000000 0.000000 0.000000 0.989031
    39 6.104527 -1.468679 -3.530282 -1.564198 -0.011689 -1.581440
    40 3.820740 -1.409995 -0.589409 -1.564198 -0.011689 -1.581440
  time 13
    0 0.000005 3.335938 -8.632813 -1.570770 -1.391894 -1.570817
    1 2.029443 1.000767 1.937660 1.227531 0.585916 1.191008
    2 0.000613 6.027528 0.000000 -0.545162 0.465394 0.513545
    3 11.692554 0.000001 0.000000 0.000000 0.000000 -0.765424
    4 11.481670 0.000001 -0.000031 0.610992 -0.455781 0.585563
    5 3.859711 -0.142405 -1.191975 -0.478152 0.090891 -0.963046
    6 1.312553 -0.000004 0.000002 0.000000 -0.001127 -0.437647
    7 0.729365 -0.000004 -0.000003 0.000000 0.000000 -0.232319
    8 3.942337 0.046767 -0.431443 -0.160888 0.031176 -0.985169
    9 1.539097 0.000000 0.000000 -0.000024 0.003619 -0.263031
    10 1.196325 -0.000002 -0.000001 0.000000 0.000000 -0.391713
    11 3.883698 -0.046765 0.431443 0.084919 0.001816 -0.671951
    12 1.719570 -0.000004 -0.000001 -0.003907 0.016398 -0.719822
    13 1.209169 -0.000004 0.000000 -0.000815 0.002976 -0.484285
    14 3.859863 -0.137946 1.332466 0.357781 -0.048443 -0.604956
    15 1.719431 0.000002 0.000000 0.000192 -0.009169 -0.439033
    16 1.099667 0.000000 -0.000001 -0.000120 0.002596 -0.291372
    17 0.806053 -0.348926 1.321258 -1.473648 -0.631489 -0.380706
    18 1.789778 -0.000002 0.000002 0.002661 0.043756 0.349807
    19 1.207005 0.000000 0.000002 0.000000 0.000000 0.540816
    20 2.033356 1.000772 -1.937610 -1.668474 1.286518 2.942953
    21 6.028145 0.000000 0.000000 1.598400 1.354814 -0.981184
    22 11.692554 0.000001 0.000002 0.000000 0.000000 -0.506777
    23 11.481699 0.000001 0.000001 -1.242507 -0.022101 0.207379
    24 3.859680 -0.132567 1.193109 0.432208 -0.155862 -0.861348
    25 1.312555 -0.000002 0.000001 0.000000 0.000000 -1.191950
    26 0.729365 0.000000 -0.000003 0.000000 0.000000 -1.063346
    27 3.942307 0.050327 0.431044 0.232421 0.000609 -0.853329
    28 1.539099 -0.000002 0.000000 0.000000 0.000000 -0.973379
    29 1.196321 0.000010 0.000000 0.000000 0.000000 -1.451289
    30 3.883659 -0.050321 -0.431042 0.066988 0.050241 -0.694790
    31 1.719578 0.000002 0.000000 0.000000 0.000000 -1.251037
    32 1.209185 0.000002 0.000000 0.000000 -0.000015 -1.141145
    33 3.859840 -0.148937 -1.331282 -0.248859 0.263122 -0.072135
    34 1.719421 0.000002 0.000000 0.000000 0.000000 -0.676754
    35 1.099669 0.000002 -0.000001 0.000000 0.000000 -1.021285
    36 0.806023 -0.359837 -1.318334 1.349682 0.343492 -0.771448
    37 1.789782 -0.000002 -0.000004 0.000000 0.000000 0.397500
    38 1.206999 0.000002 0.000000 0.000000 0.000000 0.989031
    39 6.104527 -1.468679 -3.530282 -1.564198 -0.011689 -1.581440
    40 3.820740 -1.409995 -0.589409 -1.564198 -0.011689 -1.581440
  time 14
    0 0.000005 3.335938 -8.632813 -1.570770 -1.391894 -1.570817
    1 2.029443 1.000767 1.937660 1.227531 0.585916 1.191008
    2 0.000613 6.027528 0.000000 -0.548705 0.415294 0.481208
    3 11.692554 0.000001 0.000000 0.000000 0.000000 -0.697385
    4 11.481670 0.000001 -0.000031 0.614277 -0.454981 0.492122
    5 3.859711 -0.142405 -1.191975 -0.478152 0.090891 -0.963058
    6 1.312553 -0.000004 0.000002 0.000000 -0.001139 -0.437611
    7 0.729365 -0.000004 -0.000003 0.000000 0.000000 -0.232286
    8 3.942337 0.046767 -0.431443 -0.160888 0.031176 -0.985181
    9 1.539097 0.000000 0.000000 -0.000024 0.003607 -0.263003
    10 1.196325 -0.000002 -0.000001 0.000000 0.000000 -0.391679
    11 3.883698 -0.046765 0.431443 0.084919 0.001828 -0.671951
    12 1.719570 -0.000004 -0.000001 -0.003907 0.016398 -0.719803
    13 1.209169 -0.000004 0.000000 -0.000815 0.002976 -0.484263
    14 3.859863 -0.137946 1.332466 0.357781 -0.048431 -0.604992
    15 1.719431 0.000002 0.000000 0.000192 -0.009157 -0.438983
    16 1.099667 0.000000 -0.000001 -0.000120 0.002596 -0.291331
    17 0.806053 -0.348926 1.321258 -1.473648 -0.631437 -0.380706
    18 1.789778 -0.000002 0.000002 0.002661 0.043744 0.349771
    19 1.207005 0.000000 0.000002 0.000000 0.000000 0.540754
    20 2.033356 1.000772 -1.937610 -1.668474 1.286518 2.942953
    21 6.028145 0.000000 0.000000 1.656331 1.405102 -0.917397
    22 11.692554 0.000001 0.000002 0.000000 0.000000 -0.457189
    23 11.481699 0.000001 0.000001 -1.256197 0.020095 0.148282
    24 3.859680 -0.132567 1.193109 0.432208 -0.155862 -0.861348
    25 1.312555 -0.000002 0.000001 0.000000 0.000000 -1.191950
    26 0.729365 0.000000 -0.000003 0.000000 0.000000 -1.063346
    27 3.942307 0.050327 0.431044 0.232421 0.000609 -0.853329
    28 1.539099 -0.000002 0.000000 0.000000 0.000000 -0.973379
    29 1.196321 0.000010 0.000000 0.000000 0.000000 -1.451289
    30 3.883659 -0.050321 -0.431042 0.066988 0.050241 -0.694790
    31 1.719578 0.000002 0.000000 0.000000 0.000000 -1.251037
    32 1.209185 0.000002 0.000000 0.000000 -0.000015 -1.141145
    33 3.859840 -0.148937 -1.331282 -0.248859 0.263122 -0.072135
    34 1.719421 0.000002 0.000000 0.000000 0.000000 -0.676754
    35 1.099669 0.000002 -0.000001 0.000000 0.000000 -1.021285
    36 0.806023 -0.359837 -1.318334 1.349682 0.343492 -0.771448
    37 1.789782 -0.000002 -0.000004 0.000000 0.000000 0.397500
    38 1.206999 0.000002 0.000000 0.000000 0.000000 0.989031
    39 6.104527 -1.468679 -3.530282 -1.564198 -0.011689 -1.581440
    40 3.820740 -1.409995 -0.589409 -1.564198 -0.011689 -1.581440
  time 15
    0 0.000005 3.335938 -8.632813 -1.570770 -1.391894 -1.570817
    1 2.029443 1.000767 1.937660 1.227531 0.585916 1.191008
    2 0.000613 6.027528 0.000000 -0.550437 0.379146 0.456767
    3 11.692554 0.000001 0.000000 0.000000 0.000000 -0.647817
    4 11.481670 0.000001 -0.000031 0.603151 -0.454398 0.437189
    5 3.859711 -0.142405 -1.191975 -0.478164 0.090891 -0.963094
    6 1.312553 -0.000004 0.000002 0.000000 -0.001187 -0.437527
    7 0.729365 -0.000004 -0.000003 0.000000 0.000000 -0.232190
    8 3.942337 0.046767 -0.431443 -0.160888 0.031188 -0.985229
    9 1.539097 0.000000 0.000000 -0.000024 0.003595 -0.262918
    10 1.196325 -0.000002 -0.000001 0.000000 0.000000 -0.391578
    11 3.883698 -0.046765 0.431443 0.084907 0.001852 -0.671963
    12 1.719570 -0.000004 -0.000001 -0.003907 0.016386 -0.719765
    13 1.209169 -0.000004 0.000000 -0.000815 0.002976 -0.484218
    14 3.859863 -0.137946 1.332466 0.357781 -0.048395 -0.605052
    15 1.719431 0.000002 0.000000 0.000192 -0.009145 -0.438866
    16 1.099667 0.000000 -0.000001 -0.000120 0.002596 -0.291229
    17 0.806053 -0.348926 1.321258 -1.473632 -0.631358 -0.380726
    18 1.789778 -0.000002 0.000002 0.002649 0.043720 0.349711
    19 1.207005 0.000000 0.000002 0.000000 0.000000 0.540649
    20 2.033356 1.000772 -1.937610 -1.668474 1.286518 2.942953
    21 6.028145 0.000000 0.000000 1.737894 1.445435 -0.830791
    22 11.692554 0.000001 0.000002 0.000000 0.000000 -0.415120
    23 11.481699 0.000001 0.000001 -1.273737 0.041728 0.111232
    24 3.859680 -0.132567 1.193109 0.432208 -0.155862 -0.861348
    25 1.312555 -0.000002 0.000001 0.000000 0.000000 -1.191973
    26 0.729365 0.000000 -0.000003 0.000000 0.000000 -1.063346
    27 3.942307 0.050327 0.431044 0.232421 0.000609 -0.853329
    28 1.539099 -0.000002 0.000000 0.000000 0.000000 -0.973379
    29 1.196321 0.000010 0.000000 0.000000 0.000000 -1.451289
    30 3.883659 -0.050321 -0.431042 0.066988 0.050241 -0.694790
    31 1.719578 0.000002 0.000000 0.000000 0.000000 -1.251037
    32 1.209185 0.000002 0.000000 0.000000 -0.000015 -1.141145
    33 3.859840 -0.148937 -1.331282 -0.248859 0.263122 -0.072135
    34 1.719421 0.000002 0.000000 0.000000 0.000000 -0.676754
    35 1.099669 0.000002 -0.000001 0.000000 0.000000 -1.021285
    36 0.806023 -0.359837 -1.318334 1.349682 0.343492 -0.771448
    37 1.789782 -0.000002 -0.000004 0.000000 0.000000 0.397500
    38 1.206999 0.000002 0.000000 0.000000 0.000000 0.989031
    39 6.104527 -1.468679 -3.530282 -1.564198 -0.011689 -1.581440
    40 3.820740 -1.409995 -0.589409 -1.564198 -0.011689 -1.581440
  time 16
    0 0.000005 3.335938 -8.632813 -1.570770 -1.391894 -1.570817
    1 2.029443 1.000767 1.937660 1.227531 0.585916 1.191008
    2 0.000613 6.027528 0.000000 -0.550752 0.356560 0.441632
    3 11.692554 0.000001 0.000000 0.000000 0.000000 -0.619793
    4 11.481670 0.000001 -0.000031 0.581587 -0.449449 0.420853
    5 3.859711 -0.142405 -1.191975 -0.478176 0.090879 -0.963238
    6 1.312553 -0.000004 0.000002 0.000000 -0.001282 -0.437359
    7 0.729365 -0.000004 -0.000003 0.000000 0.000000 -0.231980
    8 3.942337 0.046767 -0.431443 -0.160900 0.031200 -0.985348
    9 1.539097 0.000000 0.000000 -0.000024 0.003559 -0.262749
    10 1.196325 -0.000002 -0.000001 0.000000 0.000000 -0.391343
    11 3.883698 -0.046765 0.431443 0.084907 0.001864 -0.672011
    12 1.719570 -0.000004 -0.000001 -0.003907 0.016386 -0.719670
    13 1.209169 -0.000004 0.000000 -0.000815 0.002976 -0.484130
    14 3.859863 -0.137946 1.332466 0.357793 -0.048347 -0.605195
    15 1.719431 0.000002 0.000000 0.000180 -0.009109 -0.438666
    16 1.099667 0.000000 -0.000001 -0.000120 0.002596 -0.291046
    17 0.806053 -0.348926 1.321258 -1.473584 -0.631227 -0.380766
    18 1.789778 -0.000002 0.000002 0.002649 0.043684 0.349615
    19 1.207005 0.000000 0.000002 0.000000 0.000000 0.540503
    20 2.033356 1.000772 -1.937610 -1.668474 1.286518 2.942953
    21 6.028145 0.000000 0.000000 1.846877 1.475487 -0.717735
    22 11.692554 0.000001 0.000002 0.000000 0.000000 -0.381848
    23 11.481699 0.000001 0.000001 -1.290423 0.046108 0.099021
    24 3.859680 -0.132567 1.193109 0.432208 -0.155862 -0.861348
    25 1.312555 -0.000002 0.000001 0.000000 0.000000 -1.191950
    26 0.729365 0.000000 -0.000003 0.000000 0.000000 -1.063346
    27 3.942307 0.050327 0.431044 0.232421 0.000609 -0.853329
    28 1.539099 -0.000002 0.000000 0.000000 0.000000 -0.973379
    29 1.196321 0.000010 0.000000 0.000000 0.000000 -1.451289
    30 3.883659 -0.050321 -0.431042 0.066988 0.050241 -0.694790
    31 1.719578 0.000002 0.000000 0.000000 0.000000 -1.251037
    32 1.209185 0.000002 0.000000 0.000000 -0.000015 -1.141145
    33 3.859840 -0.148937 -1.331282 -0.248859 0.263122 -0.072135
    34 1.719421 0.000002 0.000000 0.000000 0.000000 -0.676754
    35 1.099669 0.000002 -0.000001 0.000000 0.000000 -1.021285
    36 0.806023 -0.359837 -1.318334 1.349682 0.343492 -0.771448
    37 1.789782 -0.000002 -0.000004 0.000000 0.000000 0.397500
    38 1.206999 0.000002 0.000000 0.000000 0.000000 0.989031
    39 6.104527 -1.468679 -3.530282 -1.564198 -0.011689 -1.581440
    40 3.820740 -1.409995 -0.589409 -1.564198 -0.011689 -1.581440
  time 17
    0 0.000005 3.335938 -8.632813 -1.570770 -1.391894 -1.570817
    1 2.029443 1.000767 1.937660 1.227531 0.585916 1.191008
    2 0.000613 6.027528 0.000000 -0.550752 0.343217 0.432608
    3 11.692554 0.000001 0.000000 0.000000 0.000000 -0.604781
    4 11.481670 0.000001 -0.000031 0.559653 -0.442101 0.421623
    5 3.859711 -0.142405 -1.191975 -0.478188 0.090879 -0.963334
    6 1.312553 -0.000004 0.000002 0.000000 -0.001342 -0.437227
    7 0.729365 -0.000004 -0.000003 0.000000 0.000000 -0.231818
    8 3.942337 0.046767 -0.431443 -0.160900 0.031212 -0.985444
    9 1.539097 0.000000 0.000000 -0.000024 0.003523 -0.262636
    10 1.196325 -0.000002 -0.000001 0.000000 0.000000 -0.391175
    11 3.883698 -0.046765 0.431443 0.084907 0.001876 -0.672046
    12 1.719570 -0.000004 -0.000001 -0.003907 0.016386 -0.719594
    13 1.209169 -0.000004 0.000000 -0.000815 0.002976 -0.484063
    14 3.859863 -0.137946 1.332466 0.357793 -0.048323 -0.605291
    15 1.719431 0.000002 0.000000 0.000180 -0.009085 -0.438532
    16 1.099667 0.000000 -0.000001 -0.000108 0.002596 -0.290903
    17 0.806053 -0.348926 1.321258 -1.473552 -0.631136 -0.380786
    18 1.789778 -0.000002 0.000002 0.002649 0.043660 0.349544
    19 1.207005 0.000000 0.000002 0.000000 0.000000 0.540377
    20 2.033356 1.000772 -1.937610 -1.668474 1.286518 2.942953
    21 6.028145 0.000000 0.000000 1.975699 1.495677 -0.585951
    22 11.692554 0.000001 0.000002 0.000000 0.000000 -0.357411
    23 11.481699 0.000001 0.000001 -1.304059 0.044134 0.099439
    24 3.859680 -0.132567 1.193109 0.432208 -0.155862 -0.861348
    25 1.312555 -0.000002 0.000001 0.000000 0.000000 -1.191950
    26 0.729365 0.000000 -0.000003 0.000000 0.000000 -1.063346
    27 3.942307 0.050327 0.431044 0.232421 0.000609 -0.853329
    28 1.539099 -0.000002 0.000000 0.000000 0.000000 -0.973379
    29 1.196321 0.000010 0.000000 0.000000 0.000000 -1.451289
    30 3.883659 -0.050321 -0.431042 0.066988 0.050241 -0.694790
    31 1.719578 0.000002 0.000000 0.000000 0.000000 -1.251037
    32 1.209185 0.000002 0.000000 0.000000 -0.000015 -1.141145
    33 3.859840 -0.148937 -1.331282 -0.248859 0.263122 -0.072135
    34 1.719421 0.000002 0.000000 0.000000 0.000000 -0.676754
    35 1.099669 0.000002 -0.000001 0.000000 0.000000 -1.021285
    36 0.806023 -0.359837 -1.318334 1.349682 0.343492 -0.771448
    37 1.789782 -0.000002 -0.000004 0.000000 0.000000 0.397500
    38 1.206999 0.000002 0.000000 0.000000 0.000000 0.989031
    39 6.104527 -1.468679 -3.530282 -1.564198 -0.011689 -1.581440
    40 3.820740 -1.409995 -0.589409 -1.564198 -0.011689 -1.581440
  time 18
    0 0.000005 3.335938 -8.632813 -1.570770 -1.391894 -1.570817
    1 2.029443 1.000767 1.937660 1.227531 0.585916 1.191008
    2 0.000613 6.027528 0.000000 -0.550516 0.336807 0.428472
    3 11.692554 0.000001 0.000000 0.000000 0.000000 -0.599274
    4 11.481670 0.000001 -0.000031 0.541587 -0.432657 0.432483
    5 3.859711 -0.142405 -1.191975 -0.478200 0.090867 -0.963394
    6 1.312553 -0.000004 0.000002 0.000000 -0.001390 -0.437155
    7 0.729365 -0.000004 -0.000003 0.000000 0.000000 -0.231721
    8 3.942337 0.046767 -0.431443 -0.160900 0.031212 -0.985492
    9 1.539097 0.000000 0.000000 -0.000024 0.003511 -0.262566
    10 1.196325 -0.000002 -0.000001 0.000000 0.000000 -0.391108
    11 3.883698 -0.046765 0.431443 0.084907 0.001888 -0.672058
    12 1.719570 -0.000004 -0.000001 -0.003907 0.016386 -0.719556
    13 1.209169 -0.000004 0.000000 -0.000815 0.002976 -0.484041
    14 3.859863 -0.137946 1.332466 0.357793 -0.048299 -0.605351
    15 1.719431 0.000002 0.000000 0.000180 -0.009073 -0.438449
    16 1.099667 0.000000 -0.000001 -0.000108 0.002596 -0.290842
    17 0.806053 -0.348926 1.321258 -1.473536 -0.631083 -0.380806
    18 1.789778 -0.000002 0.000002 0.002649 0.043648 0.349508
    19 1.207005 0.000000 0.000002 0.000000 0.000000 0.540315
    20 2.033356 1.000772 -1.937610 -1.668474 1.286518 2.942953
    21 6.028145 0.000000 0.000000 2.101287 1.507969 -0.458473
    22 11.692554 0.000001 0.000002 0.000000 0.000000 -0.340080
    23 11.481699 0.000001 0.000001 -1.312847 0.039240 0.107557
    24 3.859680 -0.132567 1.193109 0.432208 -0.155862 -0.861348
    25 1.312555 -0.000002 0.000001 0.000000 0.000000 -1.191950
    26 0.729365 0.000000 -0.000003 0.000000 0.000000 -1.063346
    27 3.942307 0.050327 0.431044 0.232421 0.000609 -0.853329
    28 1.539099 -0.000002 0.000000 0.000000 0.000000 -0.973379
    29 1.196321 0.000010 0.000000 0.000000 0.000000 -1.451289
    30 3.883659 -0.050321 -0.431042 0.066988 0.050241 -0.694790
    31 1.719578 0.000002 0.000000 0.000000 0.000000 -1.251037
    32 1.209185 0.000002 0.000000 0.000000 -0.000015 -1.141145
    33 3.859840 -0.148937 -1.331282 -0.248859 0.263122 -0.072135
    34 1.719421 0.000002 0.000000 0.000000 0.000000 -0.676754
    35 1.099669 0.000002 -0.000001 0.000000 0.000000 -1.021285
    36 0.806023 -0.359837 -1.318334 1.349682 0.343492 -0.771448
    37 1.789782 -0.000002 -0.000004 0.000000 0.000000 0.397500
    38 1.206999 0.000002 0.000000 0.000000 0.000000 0.989031
    39 6.104527 -1.468679 -3.530282 -1.564198 -0.011689 -1.581440
    40 3.820740 -1.409995 -0.589409 -1.564198 -0.011689 -1.581440
  time 19
    0 0.000005 3.335938 -8.632813 -1.570770 -1.391894 -1.570817
    1 2.029443 1.000767 1.937660 1.227531 0.585916 1.191008
    2 0.000613 6.027528 0.000000 -0.549807 0.334758 0.428284
    3 11.692554 0.000001 0.000000 0.000000 0.000000 -0.600931
    4 11.481670 0.000001 -0.000031 0.531361 -0.419604 0.451126
    5 3.859711 -0.142405 -1.191975 -0.478116 0.090963 -0.962747
    6 1.312553 -0.000004 0.000002 0.000000 -0.000971 -0.437910
    7 0.729365 -0.000004 -0.000003 0.000000 0.000000 -0.232674
    8 3.942337 0.046767 -0.431443 -0.160876 0.031212 -0.984929
    9 1.539097 0.000000 0.000000 -0.000024 0.003679 -0.263271
    10 1.196325 -0.000002 -0.000001 0.000000 0.000000 -0.392082
    11 3.883698 -0.046765 0.431443 0.084919 0.001852 -0.671819
    12 1.719570 -0.000004 -0.000001 -0.003919 0.016398 -0.719955
    13 1.209169 -0.000004 0.000000 -0.000815 0.002976 -0.484396
    14 3.859863 -0.137946 1.332466 0.357769 -0.048443 -0.604764
    15 1.719431 0.000002 0.000000 0.000192 -0.009205 -0.439233
    16 1.099667 0.000000 -0.000001 -0.000120 0.002596 -0.291555
    17 0.806053 -0.348926 1.321258 -1.473712 -0.631541 -0.380625
    18 1.789778 -0.000002 0.000002 0.002661 0.043780 0.349879
    19 1.207005 0.000000 0.000002 0.000000 0.000000 0.540921
    20 2.033356 1.000772 -1.937610 -1.668474 1.286518 2.942953
    21 6.028145 0.000000 0.000000 2.202750 1.515353 -0.356162
    22 11.692554 0.000001 0.000002 0.000000 0.000000 -0.326358
    23 11.481699 0.000001 0.000001 -1.312865 0.032907 0.120802
    24 3.859680 -0.132567 1.193109 0.432208 -0.155862 -0.861348
    25 1.312555 -0.000002 0.000001 0.000000 0.000000 -1.191950
    26 0.729365 0.000000 -0.000003 0.000000 0.000000 -1.063346
    27 3.942307 0.050327 0.431044 0.232421 0.000609 -0.853329
    28 1.539099 -0.000002 0.000000 0.000000 0.000000 -0.973357
    29 1.196321 0.000010 0.000000 0.000000 0.000000 -1.451289
    30 3.883659 -0.050321 -0.431042 0.066988 0.050241 -0.694790
    31 1.719578 0.000002 0.000000 0.000000 0.000000 -1.251037
    32 1.209185 0.000002 0.000000 0.000000 -0.000015 -1.141145
    33 3.859840 -0.148937 -1.331282 -0.248859 0.263122 -0.072135
    34 1.719421 0.000002 0.000000 0.000000 0.000000 -0.676754
    35 1.099669 0.000002 -0.000001 0.000000 0.000000 -1.021285
    36 0.806023 -0.359837 -1.318334 1.349682 0.343492 -0.771448
    37 1.789782 -0.000002 -0.000004 0.000000 0.000000 0.397500
    38 1.206999 0.000002 0.000000 0.000000 0.000000 0.989031
    39 6.104527 -1.468679 -3.530282 -1.564198 -0.011689 -1.581440
    40 3.820740 -1.409995 -0.589409 -1.564198 -0.011689 -1.581440
  time 20
    0 0.000005 3.335938 -8.632813 -1.570770 -1.391894 -1.570817
    1 2.029443 1.000767 1.937660 1.227531 0.585916 1.191008
    2 0.000613 6.027528 0.000000 -0.548783 0.335412 0.430634
    3 11.692554 0.000001 0.000000 0.000000 0.000000 -0.606195
    4 11.481670 0.000001 -0.000031 0.527494 -0.401926 0.474836
    5 3.859711 -0.142405 -1.191975 -0.478200 0.090855 -0.963430
    6 1.312553 -0.000004 0.000002 0.000000 -0.001402 -0.437119
    7 0.729365 -0.000004 -0.000003 0.000000 0.000000 -0.231689
    8 3.942337 0.046767 -0.431443 -0.160900 0.031200 -0.985516
    9 1.539097 0.000000 0.000000 -0.000024 0.003500 -0.262538
    10 1.196325 -0.000002 -0.000001 0.000000 0.000000 -0.391041
    11 3.883698 -0.046765 0.431443 0.084907 0.001876 -0.672082
    12 1.719570 -0.000004 -0.000001 -0.003907 0.016386 -0.719556
    13 1.209169 -0.000004 0.000000 -0.000815 0.002976 -0.484019
    14 3.859863 -0.137946 1.332466 0.357793 -0.048311 -0.605363
    15 1.719431 0.000002 0.000000 0.000180 -0.009061 -0.438416
    16 1.099667 0.000000 -0.000001 -0.000108 0.002596 -0.290822
    17 0.806053 -0.348926 1.321258 -1.473520 -0.631083 -0.380806
    18 1.789778 -0.000002 0.000002 0.002649 0.043648 0.349496
    19 1.207005 0.000000 0.000002 0.000000 0.000000 0.540294
    20 2.033356 1.000772 -1.937610 -1.668474 1.286518 2.942953
    21 6.028145 0.000000 0.000000 2.288700 1.520961 -0.270064
    22 11.692554 0.000001 0.000002 0.000000 0.000000 -0.311658
    23 11.481699 0.000001 0.000001 -1.305729 0.025997 0.137414
    24 3.859680 -0.132567 1.193109 0.432208 -0.155862 -0.861348
    25 1.312555 -0.000002 0.000001 0.000000 0.000000 -1.191950
    26 0.729365 0.000000 -0.000003 0.000000 0.000000 -1.063346
    27 3.942307 0.050327 0.431044 0.232421 0.000609 -0.853329
    28 1.539099 -0.000002 0.000000 0.000000 0.000000 -0.973379
    29 1.196321 0.000010 0.000000 0.000000 0.000000 -1.451289
    30 3.883659 -0.050321 -0.431042 0.066988 0.050241 -0.694790
    31 1.719578 0.000002 0.000000 0.000000 0.000000 -1.251037
    32 1.209185 0.000002 0.000000 0.000000 -0.000015 -1.141145
    33 3.859840 -0.148937 -1.331282 -0.248859 0.263122 -0.072135
    34 1.719421 0.000002 0.000000 0.000000 0.000000 -0.676754
    35 1.099669 0.000002 -0.000001 0.000000 0.000000 -1.021285
    36 0.806023 -0.359837 -1.318334 1.349682 0.343492 -0.771448
    37 1.789782 -0.000002 -0.000004 0.000000 0.000000 0.397500
    38 1.206999 0.000002 0.000000 0.000000 0.000000 0.989031
    39 6.104527 -1.468679 -3.530282 -1.564198 -0.011689 -1.581440
    40 3.820740 -1.409995 -0.589409 -1.564198 -0.011689 -1.581440
  time 21
    0 0.000005 3.335938 -8.632813 -1.570770 -1.391894 -1.570817
    1 2.029443 1.000767 1.937660 1.227531 0.585916 1.191008
    2 0.000613 6.027528 0.000000 -0.548154 0.338726 0.434112
    3 11.692554 0.000001 0.000000 0.000000 0.000000 -0.613262
    4 11.481670 0.000001 -0.000031 0.524844 -0.385091 0.498140
    5 3.859711 -0.142405 -1.191975 -0.478200 0.090843 -0.963418
    6 1.312553 -0.000004 0.000002 0.000000 -0.001390 -0.437143
    7 0.729365 -0.000004 -0.000003 0.000000 0.000000 -0.231721
    8 3.942337 0.046767 -0.431443 -0.160900 0.031188 -0.985504
    9 1.539097 0.000000 0.000000 -0.000024 0.003511 -0.262552
    10 1.196325 -0.000002 -0.000001 0.000000 0.000000 -0.391075
    11 3.883698 -0.046765 0.431443 0.084907 0.001864 -0.672070
    12 1.719570 -0.000004 -0.000001 -0.003907 0.016386 -0.719556
    13 1.209169 -0.000004 0.000000 -0.000815 0.002976 -0.484041
    14 3.859863 -0.137946 1.332466 0.357793 -0.048323 -0.605351
    15 1.719431 0.000002 0.000000 0.000180 -0.009073 -0.438466
    16 1.099667 0.000000 -0.000001 -0.000108 0.002596 -0.290842
    17 0.806053 -0.348926 1.321258 -1.473536 -0.631110 -0.380806
    18 1.789778 -0.000002 0.000002 0.002649 0.043648 0.349508
    19 1.207005 0.000000 0.000002 0.000000 0.000000 0.540335
    20 2.033356 1.000772 -1.937610 -1.668474 1.286518 2.942953
    21 6.028145 0.000000 0.000000 2.314514 1.523345 -0.244680
    22 11.692554 0.000001 0.000002 0.000000 0.000000 -0.302635
    23 11.481699 0.000001 0.000001 -1.299138 0.019314 0.155917
    24 3.859680 -0.132567 1.193109 0.432208 -0.155862 -0.861348
    25 1.312555 -0.000002 0.000001 0.000000 0.000000 -1.191950
    26 0.729365 0.000000 -0.000003 0.000000 0.000000 -1.063346
    27 3.942307 0.050327 0.431044 0.232421 0.000609 -0.853329
    28 1.539099 -0.000002 0.000000 0.000000 0.000000 -0.973379
    29 1.196321 0.000010 0.000000 0.000000 0.000000 -1.451289
    30 3.883659 -0.050321 -0.431042 0.066988 0.050241 -0.694790
    31 1.719578 0.000002 0.000000 0.000000 0.000000 -1.251037
    32 1.209185 0.000002 0.000000 0.000000 -0.000015 -1.141145
    33 3.859840 -0.148937 -1.331282 -0.248859 0.263122 -0.072135
    34 1.719421 0.000002 0.000000 0.000000 0.000000 -0.676754
    35 1.099669 0.000002 -0.000001 0.000000 0.000000 -1.021285
    36 0.806023 -0.359837 -1.318334 1.349682 0.343492 -0.771448
    37 1.789782 -0.000002 -0.000004 0.000000 0.000000 0.397500
    38 1.206999 0.000002 0.000000 0.000000 0.000000 0.989031
    39 6.104527 -1.468679 -3.530282 -1.564198 -0.011689 -1.581440
    40 3.820740 -1.409995 -0.589409 -1.564198 -0.011689 -1.581440
  time 22
    0 0.000005 3.335938 -8.632813 -1.570770 -1.391894 -1.570817
    1 2.029443 1.000767 1.937660 1.227531 0.585916 1.191008
    2 0.000613 6.027528 0.000000 -0.547524 0.344045 0.438812
    3 11.692554 0.000001 0.000000 0.000000 0.000000 -0.623594
    4 11.481670 0.000001 -0.000031 0.524050 -0.372968 0.518955
    5 3.859711 -0.142405 -1.191975 -0.478200 0.090843 -0.963394
    6 1.312553 -0.000004 0.000002 0.000000 -0.001366 -0.437179
    7 0.729365 -0.000004 -0.000003 0.000000 0.000000 -0.231770
    8 3.942337 0.046767 -0.431443 -0.160900 0.031188 -0.985480
    9 1.539097 0.000000 0.000000 -0.000024 0.003523 -0.262594
    10 1.196325 -0.000002 -0.000001 0.000000 0.000000 -0.391142
    11 3.883698 -0.046765 0.431443 0.084907 0.001852 -0.672070
    12 1.719570 -0.000004 -0.000001 -0.003907 0.016386 -0.719575
    13 1.209169 -0.000004 0.000000 -0.000815 0.002976 -0.484063
    14 3.859863 -0.137946 1.332466 0.357793 -0.048335 -0.605315
    15 1.719431 0.000002 0.000000 0.000180 -0.009085 -0.438516
    16 1.099667 0.000000 -0.000001 -0.000108 0.002596 -0.290903
    17 0.806053 -0.348926 1.321258 -1.473536 -0.631149 -0.380806
    18 1.789778 -0.000002 0.000002 0.002649 0.043660 0.349532
    19 1.207005 0.000000 0.000002 0.000000 0.000000 0.540377
    20 2.033356 1.000772 -1.937610 -1.668474 1.286518 2.942953
    21 6.028145 0.000000 0.000000 2.245869 1.520868 -0.314081
    22 11.692554 0.000001 0.000002 0.000000 0.000000 -0.305379
    23 11.481699 0.000001 0.000001 -1.293746 0.013453 0.174794
    24 3.859680 -0.132567 1.193109 0.432208 -0.155862 -0.861348
    25 1.312555 -0.000002 0.000001 0.000000 0.000000 -1.191950
    26 0.729365 0.000000 -0.000003 0.000000 0.000000 -1.063371
    27 3.942307 0.050327 0.431044 0.232421 0.000609 -0.853329
    28 1.539099 -0.000002 0.000000 0.000000 0.000000 -0.973357
    29 1.196321 0.000010 0.000000 0.000000 0.000000 -1.451289
    30 3.883659 -0.050321 -0.431042 0.066988 0.050241 -0.694790
    31 1.719578 0.000002 0.000000 0.000000 0.000000 -1.251037
    32 1.209185 0.000002 0.000000 0.000000 -0.000015 -1.141145
    33 3.859840 -0.148937 -1.331282 -0.248859 0.263122 -0.072135
    34 1.719421 0.000002 0.000000 0.000000 0.000000 -0.676754
    35 1.099669 0.000002 -0.000001 0.000000 0.000000 -1.021285
    36 0.806023 -0.359837 -1.318334 1.349682 0.343492 -0.771448
    37 1.789782 -0.000002 -0.000004 0.000000 0.000000 0.397500
    38 1.206999 0.000002 0.000000 0.000000 0.000000 0.989031
    39 6.104527 -1.468679 -3.530282 -1.564198 -0.011689 -1.581440
    40 3.820740 -1.409995 -0.589409 -1.564198 -0.011689 -1.581440
  time 23
    0 0.000005 3.335938 -8.632813 -1.570770 -1.391894 -1.570817
    1 2.029443 1.000767 1.937660 1.227531 0.585916 1.191008
    2 0.000613 6.027528 0.000000 -0.547130 0.349278 0.443136
    3 11.692554 0.000001 0.000000 0.000000 0.000000 -0.633001
    4 11.481670 0.000001 -0.000031 0.523520 -0.363870 0.535336
    5 3.859711 -0.142405 -1.191975 -0.478188 0.090843 -0.963370
    6 1.312553 -0.000004 0.000002 0.000000 -0.001354 -0.437215
    7 0.729365 -0.000004 -0.000003 0.000000 0.000000 -0.231802
    8 3.942337 0.046767 -0.431443 -0.160900 0.031176 -0.985456
    9 1.539097 0.000000 0.000000 -0.000024 0.003523 -0.262636
    10 1.196325 -0.000002 -0.000001 0.000000 0.000000 -0.391175
    11 3.883698 -0.046765 0.431443 0.084907 0.001852 -0.672058
    12 1.719570 -0.000004 -0.000001 -0.003907 0.016386 -0.719613
    13 1.209169 -0.000004 0.000000 -0.000815 0.002976 -0.484063
    14 3.859863 -0.137946 1.332466 0.357793 -0.048347 -0.605291
    15 1.719431 0.000002 0.000000 0.000180 -0.009085 -0.438549
    16 1.099667 0.000000 -0.000001 -0.000108 0.002596 -0.290944
    17 0.806053 -0.348926 1.321258 -1.473552 -0.631175 -0.380786
    18 1.789778 -0.000002 0.000002 0.002649 0.043672 0.349556
    19 1.207005 0.000000 0.000002 0.000000 0.000000 0.540419
    20 2.033356 1.000772 -1.937610 -1.668474 1.286518 2.942953
    21 6.028145 0.000000 0.000000 2.163071 1.516475 -0.397638
    22 11.692554 0.000001 0.000002 0.000000 0.000000 -0.312485
    23 11.481699 0.000001 0.000001 -1.290151 0.009176 0.191757
    24 3.859680 -0.132567 1.193109 0.432208 -0.155862 -0.861348
    25 1.312555 -0.000002 0.000001 0.000000 0.000000 -1.191950
    26 0.729365 0.000000 -0.000003 0.000000 0.000000 -1.063346
    27 3.942307 0.050327 0.431044 0.232421 0.000609 -0.853329
    28 1.539099 -0.000002 0.000000 0.000000 0.000000 -0.973357
    29 1.196321 0.000010 0.000000 0.000000 0.000000 -1.451289
    30 3.883659 -0.050321 -0.431042 0.066988 0.050241 -0.694790
    31 1.719578 0.000002 0.000000 0.000000 0.000000 -1.251037
    32 1.209185 0.000002 0.000000 0.000000 -0.000015 -1.141145
    33 3.859840 -0.148937 -1.331282 -0.248859 0.263122 -0.072135
    34 1.719421 0.000002 0.000000 0.000000 0.000000 -0.676754
    35 1.099669 0.000002 -0.000001 0.000000 0.000000 -1.021285
    36 0.806023 -0.359837 -1.318334 1.349682 0.343492 -0.771448
    37 1.789782 -0.000002 -0.000004 0.000000 0.000000 0.397500
    38 1.206999 0.000002 0.000000 0.000000 0.000000 0.989031
    39 6.104527 -1.468679 -3.530282 -1.564198 -0.011689 -1.581440
    40 3.820740 -1.409995 -0.589409 -1.564198 -0.011689 -1.581440
  time 24
    0 0.000005 3.335938 -8.632813 -1.570770 -1.391894 -1.570817
    1 2.029443 1.000767 1.937660 1.227531 0.585916 1.191008
    2 0.000613 6.027528 0.000000 -0.547051 0.352330 0.445204
    3 11.692554 0.000001 0.000000 0.000000 0.000000 -0.637485
    4 11.481670 0.000001 -0.000031 0.523096 -0.359115 0.542938
    5 3.859711 -0.142405 -1.191975 -0.478188 0.090843 -0.963358
    6 1.312553 -0.000004 0.000002 0.000000 -0.001342 -0.437239
    7 0.729365 -0.000004 -0.000003 0.000000 0.000000 -0.231834
    8 3.942337 0.046767 -0.431443 -0.160900 0.031176 -0.985444
    9 1.539097 0.000000 0.000000 -0.000024 0.003535 -0.262651
    10 1.196325 -0.000002 -0.000001 0.000000 0.000000 -0.391209
    11 3.883698 -0.046765 0.431443 0.084907 0.001840 -0.672058
    12 1.719570 -0.000004 -0.000001 -0.003907 0.016386 -0.719613
    13 1.209169 -0.000004 0.000000 -0.000815 0.002976 -0.484085
    14 3.859863 -0.137946 1.332466 0.357793 -0.048359 -0.605267
    15 1.719431 0.000002 0.000000 0.000180 -0.009097 -0.438582
    16 1.099667 0.000000 -0.000001 -0.000108 0.002596 -0.290965
    17 0.806053 -0.348926 1.321258 -1.473552 -0.631201 -0.380786
    18 1.789778 -0.000002 0.000002 0.002649 0.043672 0.349579
    19 1.207005 0.000000 0.000002 0.000000 0.000000 0.540440
    20 2.033356 1.000772 -1.937610 -1.668474 1.286518 2.942953
    21 6.028145 0.000000 0.000000 2.118860 1.513671 -0.442357
    22 11.692554 0.000001 0.000002 0.000000 0.000000 -0.316658
    23 11.481699 0.000001 0.000001 -1.288843 0.007428 0.200668
    24 3.859680 -0.132567 1.193109 0.432208 -0.155862 -0.861348
    25 1.312555 -0.000002 0.000001 0.000000 0.000000 -1.191950
    26 0.729365 0.000000 -0.000003 0.000000 0.000000 -1.063346
    27 3.942307 0.050327 0.431044 0.232421 0.000609 -0.853329
    28 1.539099 -0.000002 0.000000 0.000000 0.000000 -0.973379
    29 1.196321 0.000010 0.000000 0.000000 0.000000 -1.451289
    30 3.883659 -0.050321 -0.431042 0.066988 0.050241 -0.694790
    31 1.719578 0.000002 0.000000 0.000000 0.000000 -1.251037
    32 1.209185 0.000002 0.000000 0.000000 -0.000015 -1.141145
    33 3.859840 -0.148937 -1.331282 -0.248859 0.263122 -0.072135
    34 1.719421 0.000002 0.000000 0.000000 0.000000 -0.676754
    35 1.099669 0.000002 -0.000001 0.000000 0.000000 -1.021285
    36 0.806023 -0.359837 -1.318334 1.349682 0.343492 -0.771448
    37 1.789782 -0.000002 -0.000004 0.000000 0.000000 0.397500
    38 1.206999 0.000002 0.000000 0.000000 0.000000 0.989031
    39 6.104527 -1.468679 -3.530282 -1.564198 -0.011689 -1.581440
    40 3.820740 -1.409995 -0.589409 -1.564198 -0.011689 -1.581440
end
